# Blender v2.93.5 OBJ File: 'Netherlands.blend'
# www.blender.org
mtllib Amsterdam.mtl
o Amsterdam_Plane.002
v -1.000000 0.000000 1.000000
v 1.000000 0.000000 1.000000
v -1.000000 0.000000 -1.000000
v 1.000000 0.000000 -1.000000
v -1.000000 -0.112484 -1.000000
v -1.000000 -0.112484 1.000000
v 1.000000 -0.112484 1.000000
v 1.000000 -0.112484 -1.000000
vt 0.000000 0.000000
vt 0.000000 1.000000
vt 1.000000 1.000000
vt 1.000000 0.000000
vt 0.500512 0.500512
vt 0.499488 0.500512
vt 0.499488 0.499488
vt 0.500512 0.499488
vt 0.328733 0.476101
vt 0.328703 0.478526
vt 0.328548 0.478692
vt 0.328548 0.475931
vt 0.331089 0.478807
vt 0.331119 0.476383
vt 0.331274 0.476217
vt 0.331274 0.478978
vn 0.0000 -1.0000 0.0000
vn 0.0000 1.0000 0.0000
vn -1.0000 0.0000 0.0000
vn 1.0000 0.0000 0.0000
vn 0.0000 0.0000 1.0000
vn 0.0000 0.0000 -1.0000
usemtl Amsterdam
s off
f 1/1/1 3/2/1 4/3/1 2/4/1
f 6/5/2 7/6/2 8/7/2 5/8/2
f 2/9/3 4/10/3 8/11/3 7/12/3
f 3/13/4 1/14/4 6/15/4 5/16/4
f 4/10/5 3/13/5 5/16/5 8/11/5
f 1/14/6 2/9/6 7/12/6 6/15/6
o Office_2_ams_Icosphere.008
v -0.851711 -0.016511 0.748706
v -0.838428 -0.006363 0.758357
v -0.856784 -0.006363 0.764321
v -0.868130 -0.006363 0.748706
v -0.856784 -0.006363 0.733091
v -0.838428 -0.006363 0.739055
v -0.846637 0.010056 0.764321
v -0.864994 0.010056 0.758357
v -0.864994 0.010056 0.739055
v -0.846637 0.010056 0.733091
v -0.835292 0.010056 0.748706
v -0.851711 0.020203 0.748706
v -0.854693 -0.013769 0.757884
v -0.843903 -0.013769 0.754379
v -0.846885 -0.007805 0.763557
v -0.836096 -0.007805 0.748706
v -0.843903 -0.013769 0.743034
v -0.861362 -0.013769 0.748706
v -0.864344 -0.007805 0.757885
v -0.854693 -0.013769 0.739528
v -0.864344 -0.007805 0.739528
v -0.846885 -0.007805 0.733855
v -0.834252 0.001846 0.754379
v -0.834252 0.001846 0.743034
v -0.851711 0.001846 0.767063
v -0.840921 0.001846 0.763557
v -0.869169 0.001846 0.754379
v -0.862501 0.001846 0.763557
v -0.862501 0.001846 0.733855
v -0.869169 0.001846 0.743034
v -0.840921 0.001846 0.733855
v -0.851711 0.001846 0.730349
v -0.839078 0.011497 0.757885
v -0.856536 0.011497 0.763557
v -0.867326 0.011497 0.748706
v -0.856536 0.011497 0.733855
v -0.839078 0.011497 0.739528
v -0.848729 0.017462 0.757884
v -0.842060 0.017462 0.748706
v -0.859518 0.017462 0.754379
v -0.859518 0.017462 0.743034
v -0.848729 0.017462 0.739528
vt 0.332287 0.501935
vt 0.332155 0.501707
vt 0.332418 0.501707
vt 0.332023 0.501478
vt 0.331891 0.501707
vt 0.331759 0.501478
vt 0.330178 0.501935
vt 0.330046 0.501707
vt 0.330309 0.501707
vt 0.330705 0.501935
vt 0.330573 0.501707
vt 0.330837 0.501707
vt 0.331232 0.501935
vt 0.331100 0.501707
vt 0.331364 0.501707
vt 0.331891 0.501250
vt 0.332550 0.501478
vt 0.332287 0.501478
vt 0.332418 0.501250
vt 0.330441 0.501478
vt 0.330178 0.501478
vt 0.330309 0.501250
vt 0.330968 0.501478
vt 0.330705 0.501478
vt 0.330837 0.501250
vt 0.331496 0.501478
vt 0.331232 0.501478
vt 0.331364 0.501250
vt 0.332155 0.501250
vt 0.332682 0.501250
vt 0.330573 0.501250
vt 0.331100 0.501250
vt 0.331627 0.501250
vt 0.332287 0.501022
vt 0.332023 0.501022
vt 0.332155 0.500794
vt 0.332814 0.501022
vt 0.332550 0.501022
vt 0.332682 0.500794
vt 0.330705 0.501022
vt 0.330441 0.501022
vt 0.330573 0.500794
vt 0.331232 0.501022
vt 0.330968 0.501022
vt 0.331100 0.500794
vt 0.331759 0.501022
vt 0.331496 0.501022
vt 0.331627 0.500794
vt 0.331364 0.500794
vt 0.331496 0.500565
vt 0.330837 0.500794
vt 0.330968 0.500565
vt 0.330309 0.500794
vt 0.330441 0.500565
vt 0.330178 0.501022
vt 0.332418 0.500794
vt 0.332550 0.500565
vt 0.331891 0.500794
vt 0.332023 0.500565
vt 0.330046 0.501250
vt 0.329914 0.501478
vt 0.331627 0.501707
vt 0.331759 0.501935
vn 0.0000 -1.0000 0.0000
vn 0.4253 -0.8506 0.3090
vn -0.1625 -0.8506 0.5000
vn 0.7236 -0.4472 0.5257
vn 0.8506 -0.5257 0.0000
vn -0.5257 -0.8506 0.0000
vn -0.1625 -0.8506 -0.5000
vn 0.4253 -0.8506 -0.3090
vn 0.9510 0.0000 0.3090
vn -0.2764 -0.4472 0.8506
vn 0.2629 -0.5257 0.8090
vn 0.0000 0.0000 1.0000
vn -0.8944 -0.4472 0.0000
vn -0.6882 -0.5257 0.5000
vn -0.9510 0.0000 0.3090
vn -0.2764 -0.4472 -0.8506
vn -0.6882 -0.5257 -0.5000
vn -0.5878 0.0000 -0.8090
vn 0.7236 -0.4472 -0.5257
vn 0.2629 -0.5257 -0.8090
vn 0.5878 0.0000 -0.8090
vn 0.5878 0.0000 0.8090
vn -0.5878 0.0000 0.8090
vn -0.9510 0.0000 -0.3090
vn 0.0000 0.0000 -1.0000
vn 0.9510 0.0000 -0.3090
vn 0.2764 0.4472 0.8506
vn 0.6882 0.5257 0.5000
vn 0.1625 0.8506 0.5000
vn -0.7236 0.4472 0.5257
vn -0.2629 0.5257 0.8090
vn -0.4253 0.8506 0.3090
vn -0.7236 0.4472 -0.5257
vn -0.8506 0.5257 0.0000
vn -0.4253 0.8506 -0.3090
vn 0.2764 0.4472 -0.8506
vn -0.2629 0.5257 -0.8090
vn 0.1625 0.8506 -0.5000
vn 0.8944 0.4472 0.0000
vn 0.6882 0.5257 -0.5000
vn 0.5257 0.8506 0.0000
vn 0.0000 1.0000 0.0000
usemtl Amsterdam
s 1
f 9/17/7 22/18/8 21/19/9
f 10/20/10 22/21/8 24/22/11
f 9/23/7 21/24/9 26/25/12
f 9/26/7 26/27/12 28/28/13
f 9/29/7 28/30/13 25/31/14
f 10/20/10 24/22/11 31/32/15
f 11/33/16 23/34/17 33/35/18
f 12/36/19 27/37/20 35/38/21
f 13/39/22 29/40/23 37/41/24
f 14/42/25 30/43/26 39/44/27
f 10/20/10 31/32/15 34/45/28
f 11/33/16 33/35/18 36/46/29
f 12/36/19 35/38/21 38/47/30
f 13/39/22 37/41/24 40/48/31
f 14/42/25 39/44/27 32/49/32
f 15/50/33 41/51/34 46/52/35
f 16/53/36 42/54/37 48/55/38
f 17/56/39 43/57/40 49/58/41
f 18/59/42 44/60/43 50/61/44
f 19/62/45 45/63/46 47/64/47
f 47/64/47 50/65/44 20/66/48
f 47/64/47 45/63/46 50/65/44
f 45/63/46 18/59/42 50/65/44
f 50/61/44 49/67/41 20/68/48
f 50/61/44 44/60/43 49/67/41
f 44/60/43 17/56/39 49/67/41
f 49/58/41 48/69/38 20/70/48
f 49/58/41 43/57/40 48/69/38
f 43/57/40 16/71/36 48/69/38
f 48/55/38 46/72/35 20/73/48
f 48/55/38 42/54/37 46/72/35
f 42/54/37 15/50/33 46/72/35
f 46/52/35 47/74/47 20/75/48
f 46/52/35 41/51/34 47/74/47
f 41/51/34 19/62/45 47/74/47
f 32/49/32 45/63/46 19/62/45
f 32/49/32 39/44/27 45/63/46
f 39/44/27 18/59/42 45/63/46
f 40/48/31 44/60/43 18/59/42
f 40/48/31 37/41/24 44/60/43
f 37/41/24 17/56/39 44/60/43
f 38/47/30 43/57/40 17/56/39
f 38/47/30 35/38/21 43/57/40
f 35/38/21 16/71/36 43/57/40
f 36/46/29 42/54/37 16/53/36
f 36/46/29 33/35/18 42/54/37
f 33/35/18 15/50/33 42/54/37
f 34/45/28 41/51/34 15/50/33
f 34/45/28 31/32/15 41/51/34
f 31/32/15 19/62/45 41/51/34
f 39/44/27 40/48/31 18/59/42
f 39/44/27 30/43/26 40/48/31
f 30/43/26 13/39/22 40/48/31
f 37/41/24 38/47/30 17/56/39
f 37/41/24 29/40/23 38/47/30
f 29/40/23 12/36/19 38/47/30
f 35/38/21 36/76/29 16/71/36
f 35/38/21 27/37/20 36/76/29
f 27/37/20 11/77/16 36/76/29
f 33/35/18 34/45/28 15/50/33
f 33/35/18 23/34/17 34/45/28
f 23/34/17 10/20/10 34/45/28
f 31/32/15 32/49/32 19/62/45
f 31/32/15 24/22/11 32/49/32
f 24/22/11 14/42/25 32/49/32
f 25/31/14 30/43/26 14/42/25
f 25/31/14 28/30/13 30/43/26
f 28/30/13 13/39/22 30/43/26
f 28/28/13 29/40/23 13/39/22
f 28/28/13 26/27/12 29/40/23
f 26/27/12 12/36/19 29/40/23
f 26/25/12 27/37/20 12/36/19
f 26/25/12 21/24/9 27/37/20
f 21/24/9 11/77/16 27/37/20
f 24/22/11 25/78/14 14/42/25
f 24/22/11 22/21/8 25/78/14
f 22/21/8 9/79/7 25/78/14
f 21/19/9 23/34/17 11/33/16
f 21/19/9 22/18/8 23/34/17
f 22/18/8 10/20/10 23/34/17
o Buildings.002_Cube.014
v -0.264486 0.005870 -0.226292
v -0.343207 0.005870 -0.089018
v -0.355626 0.005870 0.101155
v -0.274900 0.005870 0.182658
v -0.172439 0.005870 0.205168
v -0.086280 0.005870 0.182658
v -0.093266 0.005870 0.159371
v -0.172439 0.005870 0.181105
v -0.263257 0.005870 0.158595
v -0.327682 0.005870 0.097274
v -0.317592 0.005870 -0.081255
v -0.240746 0.005870 -0.217093
v -0.293206 0.005982 -0.245697
v -0.378137 0.005982 -0.099108
v -0.390556 0.005982 0.124442
v -0.299739 0.005982 0.227678
v -0.171663 0.005982 0.256398
v -0.068427 0.005982 0.229231
v -0.080846 0.005982 0.197406
v -0.170111 0.005982 0.221469
v -0.284991 0.005982 0.197406
v -0.364941 0.005982 0.113575
v -0.356402 0.005982 -0.092899
v -0.275676 0.005982 -0.232617
v -0.231432 0.004300 -0.217093
v -0.309830 0.004300 -0.078927
v -0.319144 0.004300 0.093393
v -0.260152 0.004300 0.150833
v -0.168558 0.004300 0.169462
v -0.090937 0.004300 0.150057
v -0.096370 0.004300 0.129099
v -0.121209 0.004300 0.118232
v -0.196502 0.004300 0.112022
v -0.217460 0.004300 0.125994
v -0.252390 0.004300 0.121337
v -0.272571 0.004300 0.113575
v -0.306725 0.004300 0.075540
v -0.285767 0.004300 -0.096780
v -0.209698 0.004300 -0.207778
v -0.264486 -0.013852 -0.226292
v -0.343207 -0.013852 -0.089018
v -0.355626 -0.013852 0.101155
v -0.274900 -0.013852 0.182658
v -0.172439 -0.013852 0.205168
v -0.086280 -0.013852 0.182658
v -0.093266 -0.013852 0.159371
v -0.172439 -0.013852 0.181105
v -0.263257 -0.013852 0.158595
v -0.327682 -0.013852 0.097274
v -0.317592 -0.013852 -0.081255
v -0.240746 -0.013852 -0.217093
v -0.293206 -0.013852 -0.245697
v -0.378137 -0.013852 -0.099108
v -0.390556 -0.013852 0.124442
v -0.299739 -0.013852 0.227678
v -0.171663 -0.013852 0.256398
v -0.068427 -0.013852 0.229231
v -0.080846 -0.013852 0.197406
v -0.170111 -0.013852 0.221469
v -0.284991 -0.013852 0.197406
v -0.364941 -0.013852 0.113575
v -0.356402 -0.013852 -0.092899
v -0.275676 -0.013852 -0.232617
v -0.231432 -0.013852 -0.217093
v -0.309830 -0.013852 -0.078927
v -0.319144 -0.013852 0.093393
v -0.260152 -0.013852 0.150833
v -0.168558 -0.013852 0.169462
v -0.090937 -0.013852 0.150057
v -0.096370 -0.013852 0.129099
v -0.121209 -0.013852 0.118232
v -0.196502 -0.013852 0.112022
v -0.217460 -0.013852 0.125994
v -0.252390 -0.013852 0.121337
v -0.272571 -0.013852 0.113575
v -0.306725 -0.013852 0.075540
v -0.285767 -0.013852 -0.096780
v -0.209698 -0.013852 -0.207778
v -0.143719 0.008035 -0.182940
v -0.157500 0.008035 -0.168781
v -0.147693 0.008035 -0.155625
v -0.133189 0.008035 -0.169963
v -0.143719 -0.007479 -0.182940
v -0.157500 -0.007479 -0.168781
v -0.147693 -0.007479 -0.155625
v -0.133189 -0.007479 -0.169963
v -0.160429 0.007580 -0.160839
v -0.174210 0.007580 -0.146681
v -0.164403 0.007580 -0.133524
v -0.149899 0.007580 -0.147863
v -0.160429 -0.007479 -0.160839
v -0.174210 -0.007479 -0.146681
v -0.164403 -0.007479 -0.133524
v -0.149899 -0.007479 -0.147863
v -0.179406 0.011292 -0.138295
v -0.191300 0.011292 -0.122519
v -0.179920 0.011292 -0.110698
v -0.167330 0.011292 -0.126744
v -0.179406 -0.007479 -0.138295
v -0.191300 -0.007479 -0.122519
v -0.179920 -0.007479 -0.110698
v -0.167330 -0.007479 -0.126744
v -0.206897 0.009629 -0.125898
v -0.218791 0.009629 -0.110121
v -0.207411 0.009629 -0.098300
v -0.194821 0.009629 -0.114346
v -0.206897 -0.007479 -0.125898
v -0.218791 -0.007479 -0.110121
v -0.207411 -0.007479 -0.098300
v -0.194821 -0.007479 -0.114346
v -0.192882 0.009080 -0.114039
v -0.204776 0.009080 -0.098262
v -0.193396 0.009080 -0.086441
v -0.180806 0.009080 -0.102487
v -0.192882 -0.007479 -0.114039
v -0.204776 -0.007479 -0.098262
v -0.193396 -0.007479 -0.086441
v -0.180806 -0.007479 -0.102487
v -0.224678 0.009780 -0.106387
v -0.234650 0.009780 -0.089330
v -0.221967 0.009780 -0.078919
v -0.211337 0.009780 -0.096324
v -0.224678 -0.007479 -0.106387
v -0.234650 -0.007479 -0.089330
v -0.221967 -0.007479 -0.078919
v -0.211337 -0.007479 -0.096324
v -0.237076 0.006228 -0.083209
v -0.242888 0.006228 -0.074730
v -0.230206 0.006228 -0.064318
v -0.223735 0.006228 -0.073145
v -0.237076 -0.007479 -0.083209
v -0.242888 -0.007479 -0.074730
v -0.230206 -0.007479 -0.064318
v -0.223735 -0.007479 -0.073145
v -0.244410 -0.014229 -0.041403
v -0.248885 -0.014229 -0.041438
v -0.248159 -0.014229 -0.057831
v -0.244207 -0.014229 -0.057512
v -0.244410 0.006279 -0.041403
v -0.248885 0.006279 -0.041438
v -0.248159 0.006279 -0.057831
v -0.244207 0.006279 -0.057512
v -0.206468 0.006518 -0.095012
v -0.221123 0.006518 -0.073032
v -0.207660 0.006518 -0.063300
v -0.195785 0.006518 -0.082875
v -0.206468 -0.007479 -0.095012
v -0.221123 -0.007479 -0.073032
v -0.207660 -0.007479 -0.063300
v -0.195785 -0.007479 -0.082875
v -0.248967 0.006186 -0.029755
v -0.250785 0.006186 -0.015723
v -0.234655 0.006186 -0.012711
v -0.232428 0.006186 -0.027366
v -0.248967 -0.007479 -0.029755
v -0.250785 -0.007479 -0.015723
v -0.234655 -0.007479 -0.012711
v -0.232428 -0.007479 -0.027366
v -0.254699 0.008420 0.002405
v -0.262181 0.008420 0.020692
v -0.248164 0.008420 0.029223
v -0.240079 0.008420 0.010499
v -0.254699 -0.007479 0.002405
v -0.262181 -0.007479 0.020692
v -0.248164 -0.007479 0.029223
v -0.240079 -0.007479 0.010499
v -0.262866 0.005941 0.025018
v -0.269615 0.005941 0.043587
v -0.255270 0.005941 0.051554
v -0.247935 0.005941 0.032524
v -0.262866 -0.007479 0.025018
v -0.269615 -0.007479 0.043587
v -0.255270 -0.007479 0.051554
v -0.247935 -0.007479 0.032524
v -0.271004 0.009231 0.050504
v -0.276389 0.009231 0.069514
v -0.261504 0.009231 0.076420
v -0.255569 0.009231 0.056908
v -0.271004 -0.007479 0.050504
v -0.276389 -0.007479 0.069514
v -0.261504 -0.007479 0.076420
v -0.255569 -0.007479 0.056908
v -0.285006 0.010185 0.082341
v -0.271822 0.010185 0.097057
v -0.258027 0.010185 0.088172
v -0.271341 0.010185 0.072722
v -0.285006 -0.007479 0.082341
v -0.271822 -0.007479 0.097057
v -0.258027 -0.007479 0.088172
v -0.271341 -0.007479 0.072722
v -0.266863 0.013030 0.100013
v -0.247970 0.013030 0.105794
v -0.240754 0.013030 0.091057
v -0.260137 0.013030 0.084715
v -0.266863 -0.007479 0.100013
v -0.247970 -0.007479 0.105794
v -0.240754 -0.007479 0.091057
v -0.260137 -0.007479 0.084715
v -0.258835 0.010441 0.081664
v -0.239298 0.010441 0.084609
v -0.234324 0.010441 0.068972
v -0.254429 0.010441 0.065544
v -0.258835 -0.007479 0.081664
v -0.239298 -0.007479 0.084609
v -0.234324 -0.007479 0.068972
v -0.254429 -0.007479 0.065544
v -0.241336 0.013030 0.068658
v -0.241422 0.013030 0.048900
v -0.257636 0.013030 0.046383
v -0.257940 0.013030 0.066776
v -0.241336 -0.007479 0.068658
v -0.241422 -0.007479 0.048900
v -0.257636 -0.007479 0.046383
v -0.257940 -0.007479 0.066776
v -0.240160 0.012575 0.043698
v -0.234254 0.012575 0.024844
v -0.248944 0.012575 0.017531
v -0.255413 0.012575 0.036873
v -0.240160 -0.007479 0.043698
v -0.234254 -0.007479 0.024844
v -0.248944 -0.007479 0.017531
v -0.255413 -0.007479 0.036873
v -0.236903 0.009201 0.009159
v -0.233892 0.009201 -0.010367
v -0.249512 0.009201 -0.015394
v -0.253008 0.009201 0.004699
v -0.236903 -0.007479 0.009159
v -0.233892 -0.007479 -0.010367
v -0.249512 -0.007479 -0.015394
v -0.253008 -0.007479 0.004699
v -0.223832 0.012047 0.002020
v -0.223127 0.012047 -0.017725
v -0.239228 0.012047 -0.020889
v -0.240348 0.012047 -0.000525
v -0.223832 -0.007479 0.002020
v -0.223127 -0.007479 -0.017725
v -0.239228 -0.007479 -0.020889
v -0.240348 -0.007479 -0.000525
v -0.197778 0.013030 -0.011007
v -0.197073 0.013030 -0.030752
v -0.213174 0.013030 -0.033916
v -0.214294 0.013030 -0.013552
v -0.197778 -0.007479 -0.011007
v -0.197073 -0.007479 -0.030752
v -0.213174 -0.007479 -0.033916
v -0.214294 -0.007479 -0.013552
v -0.201490 0.013030 0.017727
v -0.198367 0.013030 -0.001782
v -0.213958 0.013030 -0.006898
v -0.217569 0.013030 0.013175
v -0.201490 -0.007479 0.017727
v -0.198367 -0.007479 -0.001782
v -0.213958 -0.007479 -0.006898
v -0.217569 -0.007479 0.013175
v -0.194342 0.008456 0.006803
v -0.186575 0.008456 -0.011364
v -0.200457 0.008456 -0.020113
v -0.208834 0.008456 -0.001518
v -0.194342 -0.007479 0.006803
v -0.186575 -0.007479 -0.011364
v -0.200457 -0.007479 -0.020113
v -0.208834 -0.007479 -0.001518
v -0.205276 0.009411 -0.012543
v -0.187006 0.009411 -0.005023
v -0.178446 0.009411 -0.019023
v -0.197153 0.009411 -0.027146
v -0.205276 -0.007479 -0.012543
v -0.187006 -0.007479 -0.005023
v -0.178446 -0.007479 -0.019023
v -0.197153 -0.007479 -0.027146
v -0.221508 0.009148 0.026591
v -0.201947 0.009148 0.029374
v -0.197103 0.009148 0.013697
v -0.217235 0.009148 0.010435
v -0.221508 -0.007479 0.026591
v -0.201947 -0.007479 0.029374
v -0.197103 -0.007479 0.013697
v -0.217235 -0.007479 0.010435
v -0.223742 0.007858 0.051615
v -0.204055 0.007858 0.049944
v -0.202847 0.007858 0.033580
v -0.223198 0.007858 0.034913
v -0.223742 -0.007479 0.051615
v -0.204055 -0.007479 0.049944
v -0.202847 -0.007479 0.033580
v -0.223198 -0.007479 0.034913
v -0.089689 0.005929 0.062802
v -0.072338 0.005929 0.072254
v -0.062314 0.005929 0.059263
v -0.080033 0.005929 0.049163
v -0.089689 -0.007479 0.062802
v -0.072338 -0.007479 0.072254
v -0.062314 -0.007479 0.059263
v -0.080033 -0.007479 0.049163
v -0.234481 -0.014229 -0.041102
v -0.238956 -0.014229 -0.041137
v -0.238230 -0.014229 -0.057530
v -0.234278 -0.014229 -0.057211
v -0.234481 0.006279 -0.041102
v -0.238956 0.006279 -0.041137
v -0.238230 0.006279 -0.057530
v -0.234278 0.006279 -0.057211
v -0.234582 -0.014229 -0.057210
v -0.234595 -0.014229 -0.052734
v -0.247983 -0.014229 -0.053530
v -0.247683 -0.014229 -0.057483
v -0.234582 0.006279 -0.057210
v -0.234595 0.006279 -0.052734
v -0.247983 0.006279 -0.053530
v -0.247683 0.006279 -0.057483
v -0.248568 0.006279 -0.044226
v -0.248812 0.006279 -0.041475
v -0.234380 0.006279 -0.041080
v -0.234416 0.006279 -0.044353
v -0.248568 -0.014229 -0.044226
v -0.248812 -0.014229 -0.041475
v -0.234380 -0.014229 -0.041080
v -0.234416 -0.014229 -0.044353
v -0.094181 0.010382 0.075380
v -0.076830 0.010382 0.084832
v -0.066806 0.010382 0.071841
v -0.084525 0.010382 0.061741
v -0.094181 -0.007479 0.075380
v -0.076830 -0.007479 0.084832
v -0.066806 -0.007479 0.071841
v -0.084525 -0.007479 0.061741
v -0.107657 0.008274 0.087059
v -0.090306 0.008274 0.096511
v -0.080282 0.008274 0.083520
v -0.098001 0.008274 0.073420
v -0.107657 -0.007479 0.087059
v -0.090306 -0.007479 0.096511
v -0.080282 -0.007479 0.083520
v -0.098001 -0.007479 0.073420
v -0.113047 0.009477 0.100086
v -0.095697 0.009477 0.109538
v -0.085673 0.009477 0.096547
v -0.103391 0.009477 0.086447
v -0.113047 -0.007479 0.100086
v -0.095697 -0.007479 0.109538
v -0.085673 -0.007479 0.096547
v -0.103391 -0.007479 0.086447
v -0.092833 0.011429 0.093797
v -0.075483 0.011429 0.103249
v -0.065459 0.011429 0.090258
v -0.083177 0.011429 0.080158
v -0.092833 -0.007479 0.093797
v -0.075483 -0.007479 0.103249
v -0.065459 -0.007479 0.090258
v -0.083177 -0.007479 0.080158
v -0.094630 0.006332 0.105476
v -0.077279 0.006332 0.114928
v -0.067255 0.006332 0.101937
v -0.084974 0.006332 0.091837
v -0.094630 -0.007479 0.105476
v -0.077279 -0.007479 0.114928
v -0.067255 -0.007479 0.101937
v -0.084974 -0.007479 0.091837
v -0.067678 0.006231 0.077177
v -0.050328 0.006231 0.086629
v -0.040304 0.006231 0.073638
v -0.058022 0.006231 0.063538
v -0.067678 -0.007479 0.077177
v -0.050328 -0.007479 0.086629
v -0.040304 -0.007479 0.073638
v -0.058022 -0.007479 0.063538
v -0.163088 0.013030 -0.068903
v -0.145737 0.013030 -0.059451
v -0.135713 0.013030 -0.072442
v -0.153432 0.013030 -0.082542
v -0.163088 -0.007479 -0.068903
v -0.145737 -0.007479 -0.059451
v -0.135713 -0.007479 -0.072442
v -0.153432 -0.007479 -0.082542
v -0.154092 0.010197 -0.075673
v -0.165624 0.010197 -0.059630
v -0.153977 0.010197 -0.048072
v -0.141757 0.010197 -0.064400
v -0.154092 -0.007479 -0.075673
v -0.165624 -0.007479 -0.059630
v -0.153977 -0.007479 -0.048072
v -0.141757 -0.007479 -0.064400
v -0.179427 0.013030 -0.056268
v -0.190959 0.013030 -0.040225
v -0.179312 0.013030 -0.028666
v -0.167091 0.013030 -0.044995
v -0.179427 -0.007479 -0.056268
v -0.190959 -0.007479 -0.040225
v -0.179312 -0.007479 -0.028666
v -0.167091 -0.007479 -0.044995
v -0.177673 0.009150 -0.047047
v -0.160875 0.009150 -0.036645
v -0.150144 0.009150 -0.049060
v -0.167274 0.009150 -0.060128
v -0.177673 -0.007479 -0.047047
v -0.160875 -0.007479 -0.036645
v -0.150144 -0.007479 -0.049060
v -0.167274 -0.007479 -0.060128
v -0.187919 0.011395 -0.081080
v -0.200177 0.011395 -0.065584
v -0.189074 0.011395 -0.053502
v -0.176116 0.011395 -0.069251
v -0.187919 -0.007479 -0.081080
v -0.200177 -0.007479 -0.065584
v -0.189074 -0.007479 -0.053502
v -0.176116 -0.007479 -0.069251
v -0.203317 0.008798 -0.064629
v -0.211918 0.008798 -0.046842
v -0.198456 0.008798 -0.037459
v -0.189226 0.008798 -0.055646
v -0.203317 -0.007479 -0.064629
v -0.211918 -0.007479 -0.046842
v -0.198456 -0.007479 -0.037459
v -0.189226 -0.007479 -0.055646
v -0.160934 0.009040 -0.091788
v -0.174379 0.009040 -0.077311
v -0.164267 0.009040 -0.064388
v -0.150103 0.009040 -0.079063
v -0.160934 -0.007479 -0.091788
v -0.174379 -0.007479 -0.077311
v -0.164267 -0.007479 -0.064388
v -0.150103 -0.007479 -0.079063
v -0.144224 0.007190 -0.099874
v -0.157669 0.007190 -0.085396
v -0.147557 0.007190 -0.072474
v -0.133393 0.007190 -0.087148
v -0.144224 -0.007479 -0.099874
v -0.157669 -0.007479 -0.085396
v -0.147557 -0.007479 -0.072474
v -0.133393 -0.007479 -0.087148
v -0.132904 0.007607 -0.122513
v -0.146350 0.007607 -0.108036
v -0.136237 0.007607 -0.095113
v -0.122073 0.007607 -0.109788
v -0.132904 -0.007479 -0.122513
v -0.146350 -0.007479 -0.108036
v -0.136237 -0.007479 -0.095113
v -0.122073 -0.007479 -0.109788
v -0.114577 0.009916 -0.140841
v -0.128022 0.009916 -0.126363
v -0.117910 0.009916 -0.113441
v -0.103746 0.009916 -0.128115
v -0.114577 -0.007479 -0.140841
v -0.128022 -0.007479 -0.126363
v -0.117910 -0.007479 -0.113441
v -0.103746 -0.007479 -0.128115
v -0.131883 0.013030 -0.110102
v -0.142179 0.013030 -0.093238
v -0.129697 0.013030 -0.082586
v -0.118737 0.013030 -0.099786
v -0.131883 -0.007479 -0.110102
v -0.142179 -0.007479 -0.093238
v -0.129697 -0.007479 -0.082586
v -0.118737 -0.007479 -0.099786
v -0.121103 0.010171 -0.046495
v -0.131398 0.010171 -0.029632
v -0.118916 0.010171 -0.018980
v -0.107956 0.010171 -0.036180
v -0.121103 -0.007479 -0.046495
v -0.131398 -0.007479 -0.029632
v -0.118916 -0.007479 -0.018980
v -0.107956 -0.007479 -0.036180
v -0.131883 0.006899 -0.029246
v -0.142179 0.006899 -0.012382
v -0.129697 0.006899 -0.001731
v -0.118737 0.006899 -0.018930
v -0.131883 -0.007479 -0.029246
v -0.142179 -0.007479 -0.012382
v -0.129697 -0.007479 -0.001731
v -0.118737 -0.007479 -0.018930
v -0.137813 0.013030 -0.011997
v -0.148108 0.013030 0.004867
v -0.135626 0.013030 0.015519
v -0.124666 0.013030 -0.001681
v -0.137813 -0.007479 -0.011997
v -0.148108 -0.007479 0.004867
v -0.135626 -0.007479 0.015519
v -0.124666 -0.007479 -0.001681
v -0.149133 0.008235 -0.000677
v -0.159428 0.008235 0.016187
v -0.146946 0.008235 0.026838
v -0.135986 0.008235 0.009639
v -0.149133 -0.007479 -0.000677
v -0.159428 -0.007479 0.016187
v -0.146946 -0.007479 0.026838
v -0.135986 -0.007479 0.009639
v -0.164226 0.008525 0.028970
v -0.174521 0.008525 0.045834
v -0.162039 0.008525 0.056486
v -0.151079 0.008525 0.039286
v -0.164226 -0.007479 0.028970
v -0.174521 -0.007479 0.045834
v -0.162039 -0.007479 0.056486
v -0.151079 -0.007479 0.039286
v -0.188753 0.008355 0.059250
v -0.208106 0.008355 0.063231
v -0.207376 0.008355 0.079624
v -0.187324 0.008355 0.075900
v -0.188753 -0.007479 0.059250
v -0.208106 -0.007479 0.063231
v -0.207376 -0.007479 0.079624
v -0.187324 -0.007479 0.075900
v -0.172208 0.013030 0.047468
v -0.188653 0.013030 0.058420
v -0.181824 0.013030 0.073341
v -0.164635 0.013030 0.062364
v -0.172208 -0.007479 0.047468
v -0.188653 -0.007479 0.058420
v -0.181824 -0.007479 0.073341
v -0.164635 -0.007479 0.062364
v -0.295496 0.005870 0.127910
v -0.316253 0.005870 0.140907
v -0.273407 0.005870 0.148934
v -0.294358 0.005870 0.163013
v -0.315262 0.005870 0.109096
v -0.334315 0.005870 0.122671
v -0.353680 0.005870 0.071346
v -0.326205 0.005870 0.071128
v -0.351634 0.005870 0.040027
v -0.324697 0.005870 0.044461
v -0.322352 0.005870 0.002967
v -0.349104 0.005870 0.001282
v -0.347219 0.005870 -0.027578
v -0.320706 0.005870 -0.026162
v -0.344943 0.005870 -0.062439
v -0.318721 0.005870 -0.061277
v -0.328931 0.005870 -0.113912
v -0.306730 0.005870 -0.100456
v -0.307656 0.005870 -0.151011
v -0.285992 0.005870 -0.137113
v -0.291126 0.005870 -0.179836
v -0.269609 0.005870 -0.166073
v -0.256182 0.005870 -0.189809
v -0.275407 0.005870 -0.207248
v -0.309426 0.005982 -0.217701
v -0.289623 0.005982 -0.208479
v -0.317390 0.005982 -0.203955
v -0.296566 0.005982 -0.196463
v -0.327334 0.005982 -0.186793
v -0.308787 0.005982 -0.175310
v -0.342406 0.005982 -0.160779
v -0.326535 0.005982 -0.144593
v -0.356350 0.005982 -0.136711
v -0.337107 0.005982 -0.126295
v -0.351048 0.005982 -0.102166
v -0.370177 0.005982 -0.112847
v -0.357016 0.005982 -0.078066
v -0.379236 0.005982 -0.079325
v -0.357921 0.005982 -0.056182
v -0.380465 0.005982 -0.057199
v -0.358561 0.005982 -0.040708
v -0.381347 0.005982 -0.041323
v -0.359371 0.005982 -0.021106
v -0.382226 0.005982 -0.025490
v -0.360270 0.005982 0.000620
v -0.383520 0.005982 -0.002207
v -0.361105 0.005982 0.020822
v -0.384629 0.005982 0.017759
v -0.362204 0.005982 0.047392
v -0.386027 0.005982 0.042913
v -0.363107 0.005982 0.069235
v -0.386780 -0.013852 0.056482
v -0.387339 0.005982 0.066527
v -0.363920 0.005982 0.088879
v -0.388429 0.005982 0.086152
v -0.364647 0.005982 0.106467
v -0.389140 -0.013852 0.098952
v -0.389582 0.005982 0.106911
v -0.379874 0.005982 0.136585
v -0.357548 0.005982 0.121326
v -0.343786 0.005982 0.135756
v -0.365946 0.005982 0.152417
v -0.355035 0.005982 0.164821
v -0.331895 0.005982 0.148225
v -0.319945 0.005982 0.160755
v -0.343235 0.005982 0.178234
v -0.329783 0.005982 0.193526
v -0.305460 0.005982 0.175943
v -0.319377 0.005982 0.205354
v -0.294606 0.005982 0.187324
v -0.277789 0.005982 0.198914
v -0.284444 0.005982 0.231108
v -0.252237 0.005982 0.204267
v -0.260160 0.005982 0.236553
v -0.227028 0.005982 0.243983
v -0.220050 0.005982 0.211008
v -0.188232 0.005982 0.217673
v -0.196569 0.005982 0.250813
v -0.143265 0.005982 0.248925
v -0.151342 0.005982 0.216409
v -0.108669 0.005982 0.239821
v -0.121192 0.005982 0.208282
v -0.100583 0.005870 0.186395
v -0.107890 0.005870 0.163386
v -0.122671 0.005870 0.167443
v -0.116435 0.005870 0.190536
v -0.147769 0.005870 0.174333
v -0.141621 0.005870 0.197116
v -0.164738 0.005870 0.178991
v -0.158922 0.005870 0.201637
v -0.182955 0.005870 0.178499
v -0.189683 0.005870 0.201380
v -0.206524 0.005870 0.197680
v -0.199729 0.005870 0.174341
v -0.213768 0.005870 0.170862
v -0.220565 0.005870 0.194595
v -0.244421 0.005870 0.163264
v -0.252081 0.005870 0.187671
v -0.257613 0.005870 0.159994
v -0.264704 0.005870 0.184898
v -0.310546 0.004300 0.101765
v -0.295996 0.004300 0.087488
v -0.285908 0.004300 0.125754
v -0.260959 0.004300 0.118041
v -0.273242 0.004300 0.138087
v -0.242211 0.004300 0.154482
v -0.237169 0.004300 0.123366
v -0.214514 0.004300 0.160115
v -0.208326 0.004300 0.119904
v -0.189794 0.004300 0.165143
v -0.177856 0.004300 0.113560
v -0.154524 0.004300 0.115484
v -0.134081 0.004300 0.160843
v -0.305769 0.004300 0.067681
v -0.317723 0.004300 0.067094
v -0.304389 0.004300 0.056336
v -0.317013 0.004300 0.053962
v -0.302849 0.004300 0.043669
v -0.316314 0.004300 0.041039
v -0.300781 0.004300 0.026664
v -0.315408 0.004300 0.024284
v -0.298410 0.004300 0.007170
v -0.314379 0.004300 0.005230
v -0.313276 0.004300 -0.015170
v -0.295931 0.004300 -0.013212
v -0.293350 0.004300 -0.034431
v -0.312148 0.004300 -0.036032
v -0.291299 -0.013852 -0.051291
v -0.311503 0.004300 -0.047972
v -0.291738 0.004300 -0.047689
v -0.310326 0.004300 -0.069738
v -0.288835 0.004300 -0.071553
v -0.287287 0.004300 -0.084285
v -0.304180 0.004300 -0.088883
v -0.289217 0.004300 -0.115255
v -0.278915 0.004300 -0.106779
v -0.267910 0.004300 -0.122836
v -0.280180 0.004300 -0.131181
v -0.257455 0.004300 -0.138092
v -0.270872 0.004300 -0.147584
v -0.247825 0.004300 -0.152144
v -0.262390 0.004300 -0.162534
v -0.234273 0.004300 -0.171919
v -0.250746 0.004300 -0.183055
v -0.222766 0.004300 -0.188710
v -0.240242 0.004300 -0.201566
v -0.353680 0.009383 0.071346
v -0.355626 0.009383 0.101155
v -0.294358 0.009383 0.163013
v -0.274900 0.009383 0.182658
v -0.257613 0.009383 0.159994
v -0.263257 0.009383 0.158595
v -0.315262 0.009383 0.109096
v -0.327682 0.009383 0.097274
v -0.370177 0.009495 -0.112847
v -0.378137 0.009495 -0.099108
v -0.357016 0.009495 -0.078066
v -0.356402 0.009495 -0.092899
v -0.273242 0.007814 0.138087
v -0.260152 0.007814 0.150833
v -0.189794 0.007814 0.165143
v -0.168558 0.007814 0.169462
v -0.237169 0.007814 0.123366
v -0.252390 0.007814 0.121337
v -0.273407 0.009383 0.148934
v -0.334315 0.009383 0.122671
v -0.326205 0.009383 0.071128
v -0.347219 0.009383 -0.027578
v -0.349104 0.009383 0.001282
v -0.322352 0.009383 0.002967
v -0.320706 0.009383 -0.026162
v -0.307656 0.009383 -0.151011
v -0.328931 0.009383 -0.113912
v -0.306730 0.009383 -0.100456
v -0.285992 0.009383 -0.137113
v -0.275407 0.009383 -0.207248
v -0.291126 0.009383 -0.179836
v -0.269609 0.009383 -0.166073
v -0.256182 0.009383 -0.189809
v -0.296566 0.009495 -0.196463
v -0.289623 0.009495 -0.208479
v -0.309426 0.009495 -0.217701
v -0.317390 0.009495 -0.203955
v -0.337107 0.009495 -0.126295
v -0.326535 0.009495 -0.144593
v -0.342406 0.009495 -0.160779
v -0.356350 0.009495 -0.136711
v -0.351048 0.009495 -0.102166
v -0.379236 0.009495 -0.079325
v -0.359371 0.009495 -0.021106
v -0.358561 0.009495 -0.040708
v -0.381347 0.009495 -0.041323
v -0.382226 0.009495 -0.025490
v -0.361105 0.009495 0.020822
v -0.360270 0.009495 0.000620
v -0.383520 0.009495 -0.002207
v -0.384629 0.009495 0.017759
v -0.363920 0.009495 0.088879
v -0.363107 0.009495 0.069235
v -0.387339 0.009495 0.066527
v -0.388429 0.009495 0.086152
v -0.343786 0.009495 0.135756
v -0.357548 0.009495 0.121326
v -0.379874 0.009495 0.136585
v -0.365946 0.009495 0.152417
v -0.305460 0.009495 0.175943
v -0.319945 0.009495 0.160755
v -0.343235 0.009495 0.178234
v -0.329783 0.009495 0.193526
v -0.220050 0.009495 0.211008
v -0.252237 0.009495 0.204267
v -0.260160 0.009495 0.236553
v -0.227028 0.009495 0.243983
v -0.121192 0.009495 0.208282
v -0.151342 0.009495 0.216409
v -0.143265 0.009495 0.248925
v -0.108669 0.009495 0.239821
v -0.141621 0.009383 0.197116
v -0.116435 0.009383 0.190536
v -0.122671 0.009383 0.167443
v -0.147769 0.009383 0.174333
v -0.220565 0.009383 0.194595
v -0.206524 0.009383 0.197680
v -0.199729 0.009383 0.174341
v -0.213768 0.009383 0.170862
v -0.252081 0.009383 0.187671
v -0.244421 0.009383 0.163264
v -0.264704 0.009383 0.184898
v -0.272571 0.007814 0.113575
v -0.295996 0.007814 0.087488
v -0.310546 0.007814 0.101765
v -0.285908 0.007814 0.125754
v -0.260959 0.007814 0.118041
v -0.242211 0.007814 0.154482
v -0.154524 0.007814 0.115484
v -0.177856 0.007814 0.113560
v -0.315408 0.007814 0.024284
v -0.316314 0.007814 0.041039
v -0.302849 0.007814 0.043669
v -0.300781 0.007814 0.026664
v -0.280180 0.007814 -0.131181
v -0.289217 0.007814 -0.115255
v -0.278915 0.007814 -0.106779
v -0.267910 0.007814 -0.122836
v -0.240242 0.007814 -0.201566
v -0.250746 0.007814 -0.183055
v -0.234273 0.007814 -0.171919
v -0.222766 0.007814 -0.188710
v -0.331895 0.007723 0.148225
v -0.343786 0.007723 0.135756
v -0.365946 0.007723 0.152417
v -0.355035 0.007723 0.164821
v -0.389582 0.006886 0.106911
v -0.390556 0.006886 0.124442
v -0.357548 0.006886 0.121326
v -0.364941 0.006886 0.113575
v -0.364647 0.006886 0.106467
v -0.379874 0.006886 0.136585
v -0.316314 0.009509 0.041039
v -0.317013 0.009509 0.053962
v -0.304389 0.009509 0.056336
v -0.302849 0.009509 0.043669
v -0.317723 0.011037 0.067094
v -0.319144 0.011037 0.093393
v -0.295996 0.011037 0.087488
v -0.306725 0.011037 0.075540
v -0.310546 0.011037 0.101765
v -0.305769 0.011037 0.067681
v -0.317723 0.012080 0.067094
v -0.319144 0.012080 0.093393
v -0.295996 0.012080 0.087488
v -0.306725 0.012080 0.075540
v -0.310546 0.012080 0.101765
v -0.305769 0.012080 0.067681
v -0.312148 0.009534 -0.036032
v -0.313276 0.009534 -0.015170
v -0.295931 0.009534 -0.013212
v -0.293350 0.009534 -0.034431
v -0.310326 0.011687 -0.069738
v -0.311503 0.011687 -0.047972
v -0.291738 0.011687 -0.047689
v -0.288835 0.011687 -0.071553
v -0.304180 0.008525 -0.088883
v -0.309830 0.008525 -0.078927
v -0.310326 0.008525 -0.069738
v -0.288835 0.008525 -0.071553
v -0.287287 0.008525 -0.084285
v -0.287287 0.006467 -0.084285
v -0.285767 0.006467 -0.096780
v -0.289217 0.006467 -0.115255
v -0.304180 0.006467 -0.088883
v -0.278915 0.006467 -0.106779
v -0.262390 0.013224 -0.162534
v -0.270872 0.013224 -0.147584
v -0.257455 0.013224 -0.138092
v -0.247825 0.013224 -0.152144
v -0.326535 0.008603 -0.144593
v -0.308787 0.008603 -0.175310
v -0.327334 0.008603 -0.186793
v -0.342406 0.008603 -0.160779
v -0.208326 0.007512 0.119904
v -0.217460 0.007512 0.125994
v -0.237169 0.007512 0.123366
v -0.242211 0.007512 0.154482
v -0.214514 0.007512 0.160115
vt 0.314503 0.504994
vt 0.314503 0.504994
vt 0.314503 0.504994
vt 0.314503 0.504994
vt 0.314503 0.504994
vt 0.314503 0.504994
vt 0.314503 0.504994
vt 0.314502 0.504994
vt 0.314502 0.504994
vt 0.314503 0.504994
vt 0.314503 0.504994
vt 0.314502 0.504994
vt 0.314502 0.504994
vt 0.314503 0.504994
vt 0.314503 0.504994
vt 0.314503 0.504994
vt 0.314503 0.504994
vt 0.314503 0.504994
vt 0.314503 0.504994
vt 0.314503 0.504994
vt 0.314503 0.504994
vt 0.314503 0.504994
vt 0.314503 0.504994
vt 0.314503 0.504994
vt 0.314503 0.504994
vt 0.314503 0.504994
vt 0.314503 0.504994
vt 0.314503 0.504994
vt 0.314503 0.504994
vt 0.314503 0.504994
vt 0.314503 0.504994
vt 0.314503 0.504994
vt 0.314503 0.504994
vt 0.314503 0.504994
vt 0.314503 0.504994
vt 0.314503 0.504994
vt 0.314503 0.504994
vt 0.314503 0.504994
vt 0.314503 0.504994
vt 0.314503 0.504994
vt 0.314503 0.504994
vt 0.314503 0.504994
vt 0.314503 0.504994
vt 0.314503 0.504994
vt 0.314503 0.504994
vt 0.314503 0.504994
vt 0.314503 0.504994
vt 0.314503 0.504994
vt 0.314503 0.504994
vt 0.314503 0.504994
vt 0.314503 0.504994
vt 0.314503 0.504994
vt 0.314503 0.504994
vt 0.314503 0.504994
vt 0.314503 0.504994
vt 0.314503 0.504994
vt 0.314503 0.504994
vt 0.314502 0.504994
vt 0.314502 0.504994
vt 0.314502 0.504994
vt 0.314502 0.504994
vt 0.314502 0.504994
vt 0.314502 0.504994
vt 0.314503 0.504994
vt 0.314503 0.504994
vt 0.314503 0.504994
vt 0.314503 0.504994
vt 0.314503 0.504994
vt 0.314503 0.504994
vt 0.314503 0.504994
vt 0.314502 0.504994
vt 0.314503 0.504994
vt 0.314503 0.504994
vt 0.314503 0.504994
vt 0.314503 0.504994
vt 0.314503 0.504994
vt 0.314503 0.504994
vt 0.314503 0.504994
vt 0.314503 0.504994
vt 0.314503 0.504994
vt 0.314502 0.504994
vt 0.314502 0.504994
vt 0.314502 0.504994
vt 0.314502 0.504994
vt 0.314502 0.504994
vt 0.314503 0.504994
vt 0.314503 0.504994
vt 0.314503 0.504994
vt 0.314503 0.504994
vt 0.314503 0.504994
vt 0.314503 0.504994
vt 0.314503 0.504994
vt 0.314503 0.504994
vt 0.314503 0.504994
vt 0.314503 0.504994
vt 0.314503 0.504994
vt 0.314503 0.504994
vt 0.314503 0.504994
vt 0.314503 0.504994
vt 0.314503 0.504994
vt 0.314503 0.504994
vt 0.314503 0.504994
vt 0.314503 0.504994
vt 0.314503 0.504994
vt 0.314503 0.504994
vt 0.314503 0.504994
vt 0.314503 0.504994
vt 0.314503 0.504994
vt 0.314503 0.504994
vt 0.314503 0.504994
vt 0.314503 0.504994
vt 0.314503 0.504994
vt 0.314503 0.504994
vt 0.314503 0.504994
vt 0.314503 0.504994
vt 0.314503 0.504994
vt 0.314503 0.504994
vt 0.314503 0.504994
vt 0.314503 0.504994
vt 0.314503 0.504994
vt 0.314503 0.504994
vt 0.314502 0.504994
vt 0.314503 0.504994
vt 0.314503 0.504994
vt 0.314503 0.504994
vt 0.314502 0.504994
vt 0.314502 0.504994
vt 0.314502 0.504994
vt 0.314502 0.504994
vt 0.314502 0.504994
vt 0.314502 0.504994
vt 0.314503 0.504994
vt 0.314503 0.504994
vt 0.314503 0.504994
vt 0.314503 0.504994
vt 0.314503 0.504994
vt 0.314503 0.504994
vt 0.314503 0.504994
vt 0.314503 0.504994
vt 0.314503 0.504994
vt 0.314503 0.504994
vt 0.314503 0.504994
vt 0.314503 0.504994
vt 0.314503 0.504994
vt 0.314503 0.504994
vt 0.314503 0.504994
vt 0.314503 0.504994
vt 0.314502 0.504994
vt 0.314503 0.504994
vt 0.314503 0.504994
vt 0.314503 0.504994
vt 0.314503 0.504994
vt 0.314503 0.504994
vt 0.314503 0.504994
vt 0.314503 0.504994
vt 0.314503 0.504994
vt 0.314503 0.504994
vt 0.314503 0.504994
vt 0.314503 0.504994
vt 0.314503 0.504994
vt 0.314503 0.504994
vt 0.314502 0.504994
vt 0.314502 0.504994
vt 0.314503 0.504994
vt 0.314503 0.504994
vt 0.314503 0.504994
vt 0.314503 0.504994
vt 0.314503 0.504994
vt 0.314503 0.504994
vt 0.314503 0.504994
vt 0.314503 0.504994
vt 0.314503 0.504994
vt 0.314502 0.504994
vt 0.314503 0.504994
vt 0.314503 0.504994
vt 0.314503 0.504994
vt 0.314503 0.504994
vt 0.314503 0.504994
vt 0.314503 0.504994
vt 0.314503 0.504994
vt 0.314503 0.504994
vt 0.314503 0.504994
vt 0.314503 0.504994
vt 0.314503 0.504994
vt 0.314503 0.504994
vt 0.314503 0.504994
vt 0.314503 0.504994
vt 0.314503 0.504994
vt 0.314503 0.504994
vt 0.314503 0.504994
vt 0.314503 0.504994
vt 0.314503 0.504994
vt 0.314502 0.504994
vt 0.314502 0.504994
vt 0.314502 0.504994
vt 0.314503 0.504994
vt 0.314503 0.504994
vt 0.314503 0.504994
vt 0.314503 0.504994
vt 0.314503 0.504994
vt 0.314503 0.504994
vt 0.314503 0.504994
vt 0.314503 0.504994
vt 0.314503 0.504994
vt 0.314503 0.504994
vt 0.314503 0.504994
vt 0.314503 0.504994
vt 0.314503 0.504994
vt 0.314503 0.504994
vt 0.314503 0.504994
vt 0.314503 0.504994
vt 0.314502 0.504994
vt 0.314503 0.504994
vt 0.314503 0.504994
vt 0.313222 0.500723
vt 0.313222 0.500723
vt 0.313222 0.500723
vt 0.313222 0.500723
vt 0.313222 0.500723
vt 0.313222 0.500723
vt 0.313222 0.500723
vt 0.313222 0.500723
vt 0.313222 0.500723
vt 0.313222 0.500723
vt 0.313222 0.500723
vt 0.313222 0.500723
vt 0.313222 0.500723
vt 0.313222 0.500723
vt 0.313222 0.500723
vt 0.313222 0.500723
vt 0.313222 0.500723
vt 0.313222 0.500723
vt 0.313222 0.500723
vt 0.313222 0.500723
vt 0.313222 0.500723
vt 0.313222 0.500723
vt 0.313222 0.500723
vt 0.313222 0.500723
vt 0.313222 0.500723
vt 0.313222 0.500723
vt 0.313222 0.500723
vt 0.313222 0.500723
vt 0.313222 0.500723
vt 0.313222 0.500723
vt 0.313222 0.500723
vt 0.313222 0.500723
vt 0.313222 0.500723
vt 0.313222 0.500723
vt 0.313222 0.500723
vt 0.313222 0.500723
vt 0.313222 0.500723
vt 0.313222 0.500723
vt 0.313222 0.500723
vt 0.313222 0.500723
vt 0.313222 0.500723
vt 0.313222 0.500723
vt 0.313222 0.500723
vt 0.313222 0.500723
vt 0.313222 0.500723
vt 0.313222 0.500723
vt 0.313222 0.500723
vt 0.313222 0.500723
vt 0.313222 0.500723
vt 0.313222 0.500723
vt 0.313222 0.500723
vt 0.313222 0.500723
vt 0.313222 0.500723
vt 0.313222 0.500723
vt 0.313222 0.500723
vt 0.313222 0.500723
vt 0.313222 0.500723
vt 0.313222 0.500723
vt 0.313222 0.500723
vt 0.313222 0.500723
vt 0.313222 0.500723
vt 0.313222 0.500723
vt 0.313222 0.500723
vt 0.313222 0.500723
vt 0.313222 0.500723
vt 0.313222 0.500723
vt 0.313222 0.500723
vt 0.313222 0.500723
vt 0.313222 0.500723
vt 0.313222 0.500723
vt 0.313222 0.500723
vt 0.313222 0.500723
vt 0.313222 0.500723
vt 0.313222 0.500723
vt 0.313222 0.500723
vt 0.313222 0.500723
vt 0.313222 0.500723
vt 0.313222 0.500723
vt 0.313222 0.500723
vt 0.313222 0.500723
vt 0.313222 0.500723
vt 0.313222 0.500723
vt 0.313222 0.500723
vt 0.313222 0.500723
vt 0.313222 0.500723
vt 0.313222 0.500723
vt 0.313222 0.500723
vt 0.313222 0.500723
vt 0.313222 0.500723
vt 0.313222 0.500723
vt 0.313222 0.500723
vt 0.313222 0.500723
vt 0.313222 0.500723
vt 0.313222 0.500723
vt 0.313222 0.500723
vt 0.313222 0.500723
vt 0.313222 0.500723
vt 0.313222 0.500723
vt 0.313222 0.500723
vt 0.313222 0.500723
vt 0.313222 0.500723
vt 0.313222 0.500723
vt 0.313222 0.500723
vt 0.313222 0.500723
vt 0.313222 0.500723
vt 0.313222 0.500723
vt 0.313222 0.500723
vt 0.313222 0.500723
vt 0.313222 0.500723
vt 0.313222 0.500723
vt 0.313222 0.500723
vt 0.313222 0.500723
vt 0.313222 0.500723
vt 0.313222 0.500723
vt 0.313222 0.500723
vt 0.313222 0.500723
vt 0.313222 0.500723
vt 0.313222 0.500723
vt 0.313222 0.500723
vt 0.313222 0.500723
vt 0.313222 0.500723
vt 0.313222 0.500723
vt 0.313222 0.500723
vt 0.313222 0.500723
vt 0.313222 0.500723
vt 0.313222 0.500723
vt 0.313222 0.500723
vt 0.313222 0.500723
vt 0.313222 0.500723
vt 0.313222 0.500723
vt 0.313222 0.500723
vt 0.313222 0.500723
vt 0.313222 0.500723
vt 0.313222 0.500723
vt 0.313222 0.500723
vt 0.313222 0.500723
vt 0.313222 0.500723
vt 0.313222 0.500723
vt 0.313222 0.500723
vt 0.313222 0.500723
vt 0.313222 0.500723
vt 0.313222 0.500723
vt 0.313222 0.500723
vt 0.313222 0.500723
vt 0.313222 0.500723
vt 0.313222 0.500723
vt 0.313222 0.500723
vt 0.313222 0.500723
vt 0.313222 0.500723
vt 0.313222 0.500723
vt 0.313222 0.500723
vt 0.313222 0.500723
vt 0.313222 0.500723
vt 0.313222 0.500723
vt 0.313222 0.500723
vt 0.313222 0.500723
vt 0.313222 0.500723
vt 0.313222 0.500723
vt 0.313222 0.500723
vt 0.313222 0.500723
vt 0.313222 0.500723
vt 0.313222 0.500723
vt 0.313222 0.500723
vt 0.313222 0.500723
vt 0.313222 0.500723
vt 0.313222 0.500723
vt 0.313222 0.500723
vt 0.313222 0.500723
vt 0.313222 0.500723
vt 0.313222 0.500723
vt 0.313222 0.500723
vt 0.313222 0.500723
vt 0.313222 0.500723
vt 0.313222 0.500723
vt 0.313222 0.500723
vt 0.313222 0.500723
vt 0.313222 0.500723
vt 0.313222 0.500723
vt 0.313222 0.500723
vt 0.313222 0.500723
vt 0.313222 0.500723
vt 0.313222 0.500723
vt 0.313222 0.500723
vt 0.313222 0.500723
vt 0.313222 0.500723
vt 0.313222 0.500723
vt 0.313222 0.500723
vt 0.313222 0.500723
vt 0.313222 0.500723
vt 0.313222 0.500723
vt 0.313222 0.500723
vt 0.313222 0.500723
vt 0.313222 0.500723
vt 0.313222 0.500723
vt 0.313222 0.500723
vt 0.313222 0.500723
vt 0.313222 0.500723
vt 0.313222 0.500723
vt 0.313222 0.500723
vt 0.313222 0.500723
vt 0.313222 0.500723
vt 0.313222 0.500723
vt 0.313222 0.500723
vt 0.313222 0.500723
vt 0.313222 0.500723
vt 0.313222 0.500723
vt 0.313222 0.500723
vt 0.313222 0.500723
vt 0.313222 0.500723
vt 0.313222 0.500723
vt 0.313222 0.500723
vt 0.313222 0.500723
vt 0.313222 0.500723
vt 0.313222 0.500723
vt 0.313222 0.500723
vt 0.313222 0.500723
vt 0.313222 0.500723
vt 0.313222 0.500723
vt 0.313222 0.500723
vt 0.313222 0.500723
vt 0.313222 0.500723
vt 0.313222 0.500723
vt 0.313222 0.500723
vt 0.313222 0.500723
vt 0.313222 0.500723
vt 0.313222 0.500723
vt 0.313222 0.500723
vt 0.313222 0.500723
vt 0.313222 0.500723
vt 0.313222 0.500723
vt 0.313222 0.500723
vt 0.313222 0.500723
vt 0.313222 0.500723
vt 0.313222 0.500723
vt 0.313222 0.500723
vt 0.313222 0.500723
vt 0.313222 0.500723
vt 0.313222 0.500723
vt 0.313222 0.500723
vt 0.313222 0.500723
vt 0.313222 0.500723
vt 0.313222 0.500723
vt 0.313222 0.500723
vt 0.313222 0.500723
vt 0.313222 0.500723
vt 0.313222 0.500723
vt 0.313222 0.500723
vt 0.313222 0.500723
vt 0.313222 0.500723
vt 0.313222 0.500723
vt 0.313222 0.500723
vt 0.313222 0.500723
vt 0.313222 0.500723
vt 0.313222 0.500723
vt 0.313222 0.500723
vt 0.313222 0.500723
vt 0.313222 0.500723
vt 0.313222 0.500723
vt 0.313222 0.500723
vt 0.313222 0.500723
vt 0.313222 0.500723
vt 0.313222 0.500723
vt 0.313222 0.500723
vt 0.313222 0.500723
vt 0.313222 0.500723
vt 0.313222 0.500723
vt 0.313222 0.500723
vt 0.313222 0.500723
vt 0.313222 0.500723
vt 0.313222 0.500723
vt 0.313222 0.500723
vt 0.313222 0.500723
vt 0.313222 0.500723
vt 0.313222 0.500723
vt 0.313222 0.500723
vt 0.313222 0.500723
vt 0.313222 0.500723
vt 0.313222 0.500723
vt 0.313222 0.500723
vt 0.313222 0.500723
vt 0.313222 0.500723
vt 0.313222 0.500723
vt 0.313222 0.500723
vt 0.313222 0.500723
vt 0.313222 0.500723
vt 0.313222 0.500723
vt 0.313222 0.500723
vt 0.313222 0.500723
vt 0.313222 0.500723
vt 0.313222 0.500723
vt 0.313222 0.500723
vt 0.313222 0.500723
vt 0.313222 0.500723
vt 0.313222 0.500723
vt 0.313222 0.500723
vt 0.313222 0.500723
vt 0.313222 0.500723
vt 0.313222 0.500723
vt 0.313222 0.500723
vt 0.313222 0.500723
vt 0.313222 0.500723
vt 0.313222 0.500723
vt 0.313222 0.500723
vt 0.313222 0.500723
vt 0.313222 0.500723
vt 0.313222 0.500723
vt 0.313222 0.500723
vt 0.313222 0.500723
vt 0.313222 0.500723
vt 0.313222 0.500723
vt 0.313222 0.500723
vt 0.313222 0.500723
vt 0.313222 0.500723
vt 0.313222 0.500723
vt 0.313222 0.500723
vt 0.313222 0.500723
vt 0.313222 0.500723
vt 0.313222 0.500723
vt 0.313222 0.500723
vt 0.313222 0.500723
vt 0.313222 0.500723
vt 0.313222 0.500723
vt 0.313222 0.500723
vt 0.313222 0.500723
vt 0.313222 0.500723
vt 0.313222 0.500723
vt 0.313222 0.500723
vt 0.313222 0.500723
vt 0.313222 0.500723
vt 0.313222 0.500723
vt 0.313222 0.500723
vt 0.313222 0.500723
vt 0.313222 0.500723
vt 0.313222 0.500723
vt 0.313222 0.500723
vt 0.313222 0.500723
vt 0.313222 0.500723
vt 0.313222 0.500723
vt 0.313222 0.500723
vt 0.313222 0.500723
vt 0.313222 0.500723
vt 0.313222 0.500723
vt 0.313222 0.500723
vt 0.313222 0.500723
vt 0.313222 0.500723
vt 0.313222 0.500723
vt 0.313222 0.500723
vt 0.313222 0.500723
vt 0.313222 0.500723
vt 0.313222 0.500723
vt 0.313222 0.500723
vt 0.313222 0.500723
vt 0.313222 0.500723
vt 0.313222 0.500723
vt 0.313222 0.500723
vt 0.313222 0.500723
vt 0.313222 0.500723
vt 0.313222 0.500723
vt 0.313222 0.500723
vt 0.313222 0.500723
vt 0.313222 0.500723
vt 0.313222 0.500723
vt 0.313222 0.500723
vt 0.313222 0.500723
vt 0.313222 0.500723
vt 0.313222 0.500723
vt 0.313222 0.500723
vt 0.313222 0.500723
vt 0.313222 0.500723
vt 0.313222 0.500723
vt 0.313222 0.500723
vt 0.313222 0.500723
vt 0.313222 0.500723
vt 0.313222 0.500723
vt 0.313222 0.500723
vt 0.313222 0.500723
vt 0.313222 0.500723
vt 0.313222 0.500723
vt 0.313222 0.500723
vt 0.313222 0.500723
vt 0.313222 0.500723
vt 0.313222 0.500723
vt 0.313222 0.500723
vt 0.313222 0.500723
vt 0.313222 0.500723
vt 0.313222 0.500723
vt 0.313222 0.500723
vt 0.313222 0.500723
vt 0.313222 0.500723
vt 0.313222 0.500723
vt 0.313222 0.500723
vt 0.313222 0.500723
vt 0.313222 0.500723
vt 0.313222 0.500723
vt 0.313222 0.500723
vt 0.313222 0.500723
vt 0.313222 0.500723
vt 0.313222 0.500723
vt 0.313222 0.500723
vt 0.313222 0.500723
vt 0.313222 0.500723
vt 0.313222 0.500723
vt 0.313222 0.500723
vt 0.313222 0.500723
vt 0.313222 0.500723
vt 0.313222 0.500723
vt 0.313222 0.500723
vt 0.313222 0.500723
vt 0.313222 0.500723
vt 0.313222 0.500723
vt 0.313222 0.500723
vt 0.313222 0.500723
vt 0.313222 0.500723
vt 0.313222 0.500723
vt 0.313222 0.500723
vt 0.313222 0.500723
vt 0.313222 0.500723
vt 0.313222 0.500723
vt 0.313222 0.500723
vt 0.313222 0.500723
vt 0.313222 0.500723
vt 0.313222 0.500723
vt 0.313222 0.500723
vt 0.313222 0.500723
vt 0.313222 0.500723
vt 0.313222 0.500723
vt 0.313222 0.500723
vt 0.313222 0.500723
vt 0.313222 0.500723
vt 0.313222 0.500723
vt 0.313222 0.500723
vt 0.313222 0.500723
vt 0.314503 0.504994
vt 0.314503 0.504994
vt 0.314503 0.504994
vt 0.314503 0.504994
vt 0.314502 0.504994
vt 0.314503 0.504994
vt 0.314502 0.504994
vt 0.314502 0.504994
vt 0.314503 0.504994
vt 0.314502 0.504994
vt 0.314502 0.504994
vt 0.314503 0.504994
vt 0.314503 0.504994
vt 0.314503 0.504994
vt 0.314503 0.504994
vt 0.314503 0.504994
vt 0.314502 0.504994
vt 0.314503 0.504994
vt 0.314503 0.504994
vt 0.314503 0.504994
vt 0.314503 0.504994
vt 0.314503 0.504994
vt 0.314503 0.504994
vt 0.314503 0.504994
vt 0.314502 0.504994
vt 0.314503 0.504994
vt 0.314502 0.504994
vt 0.314502 0.504994
vt 0.314503 0.504994
vt 0.314502 0.504994
vt 0.314503 0.504994
vt 0.314502 0.504994
vt 0.314503 0.504994
vt 0.314502 0.504994
vt 0.314502 0.504994
vt 0.314502 0.504994
vt 0.314503 0.504994
vt 0.314503 0.504994
vt 0.314503 0.504994
vt 0.314502 0.504994
vt 0.314503 0.504994
vt 0.314502 0.504994
vt 0.314503 0.504994
vt 0.314503 0.504994
vt 0.314503 0.504994
vt 0.314503 0.504994
vt 0.314503 0.504994
vt 0.314503 0.504994
vt 0.314503 0.504994
vt 0.314503 0.504994
vt 0.314503 0.504994
vt 0.314503 0.504994
vt 0.314503 0.504994
vt 0.314503 0.504994
vt 0.314502 0.504994
vt 0.314503 0.504994
vt 0.314503 0.504994
vt 0.314503 0.504994
vt 0.314503 0.504994
vt 0.314502 0.504994
vt 0.314503 0.504994
vt 0.314503 0.504994
vt 0.314503 0.504994
vt 0.314502 0.504994
vt 0.314502 0.504994
vt 0.314502 0.504994
vt 0.314503 0.504994
vt 0.314503 0.504994
vt 0.314503 0.504994
vt 0.314502 0.504994
vt 0.314503 0.504994
vt 0.314503 0.504994
vt 0.314503 0.504994
vt 0.314503 0.504994
vt 0.314503 0.504994
vt 0.314503 0.504994
vt 0.314503 0.504994
vt 0.314503 0.504994
vt 0.314503 0.504994
vt 0.314503 0.504994
vt 0.314503 0.504994
vt 0.314503 0.504994
vt 0.314503 0.504994
vt 0.314503 0.504994
vt 0.314502 0.504994
vt 0.314502 0.504994
vt 0.314503 0.504994
vt 0.314503 0.504994
vt 0.314502 0.504994
vt 0.314502 0.504994
vt 0.314503 0.504994
vt 0.314503 0.504994
vt 0.314503 0.504994
vt 0.314503 0.504994
vt 0.314503 0.504994
vt 0.314502 0.504994
vt 0.314503 0.504994
vt 0.314502 0.504994
vt 0.314502 0.504994
vt 0.314503 0.504994
vt 0.314503 0.504994
vt 0.314502 0.504994
vt 0.314502 0.504994
vt 0.314503 0.504994
vt 0.314503 0.504994
vt 0.314503 0.504994
vt 0.314503 0.504994
vt 0.314503 0.504994
vt 0.314503 0.504994
vt 0.314503 0.504994
vt 0.314503 0.504994
vt 0.314503 0.504994
vt 0.314503 0.504994
vt 0.314502 0.504994
vt 0.314503 0.504994
vt 0.314503 0.504994
vt 0.314503 0.504994
vt 0.314503 0.504994
vt 0.314503 0.504994
vt 0.314503 0.504994
vt 0.314503 0.504994
vt 0.314503 0.504994
vt 0.314503 0.504994
vt 0.314503 0.504994
vt 0.314503 0.504994
vt 0.314503 0.504994
vt 0.314503 0.504994
vt 0.314503 0.504994
vt 0.314503 0.504994
vt 0.314503 0.504994
vt 0.314503 0.504994
vt 0.314502 0.504994
vt 0.314502 0.504994
vt 0.314503 0.504994
vt 0.314503 0.504994
vt 0.314503 0.504994
vt 0.314503 0.504994
vt 0.314502 0.504994
vt 0.314503 0.504994
vt 0.314503 0.504994
vt 0.314503 0.504994
vt 0.314503 0.504994
vt 0.314503 0.504994
vt 0.314503 0.504994
vt 0.314503 0.504994
vt 0.314503 0.504994
vt 0.314503 0.504994
vt 0.314503 0.504994
vt 0.314503 0.504994
vt 0.314503 0.504994
vt 0.314503 0.504994
vt 0.314503 0.504994
vt 0.314503 0.504994
vt 0.314503 0.504994
vt 0.314503 0.504994
vt 0.314503 0.504994
vt 0.314503 0.504994
vt 0.314502 0.504994
vt 0.314503 0.504994
vt 0.314503 0.504994
vt 0.314502 0.504994
vt 0.314503 0.504994
vt 0.314503 0.504994
vt 0.314502 0.504994
vt 0.314502 0.504994
vt 0.314503 0.504994
vt 0.314503 0.504994
vt 0.314503 0.504994
vt 0.314503 0.504994
vn 0.0000 1.0000 0.0000
vn 0.1111 0.0000 -0.9938
vn 0.0841 0.0000 0.9965
vn -0.0000 -1.0000 -0.0000
vn 0.8659 0.0000 0.5003
vn 0.6894 -0.0000 -0.7243
vn 0.8249 -0.0000 0.5653
vn -0.8697 0.0000 -0.4935
vn 0.9984 0.0000 0.0564
vn 0.3939 0.0000 -0.9191
vn -0.9985 0.0000 -0.0540
vn 0.8704 0.0000 0.4924
vn 0.3613 0.0000 -0.9324
vn -0.6976 -0.0000 0.7165
vn -0.8653 0.0000 -0.5013
vn 0.5980 0.0000 -0.8015
vn -0.1993 -0.0000 0.9799
vn -0.9985 0.0000 -0.0555
vn 0.2425 0.0000 0.9701
vn -0.7508 -0.0000 0.6605
vn -0.8675 -0.0000 -0.4975
vn 0.9680 0.0000 -0.2510
vn -0.2188 0.0000 0.9758
vn -0.9979 0.0000 -0.0652
vn 0.4008 0.0000 -0.9162
vn 0.2545 0.0000 0.9671
vn -0.7105 -0.0000 0.7037
vn 0.0822 0.0000 -0.9966
vn 0.9316 0.0000 -0.3635
vn -0.2146 -0.0000 0.9767
vn -0.5547 0.0000 -0.8321
vn -0.2603 0.0000 -0.9655
vn 0.2528 0.0000 0.9675
vn 0.1322 0.0000 -0.9912
vn 0.2050 -0.0000 -0.9788
vn 0.9578 0.0000 -0.2873
vn 0.3590 0.0000 -0.9333
vn 0.7237 -0.0000 -0.6902
vn -0.2647 -0.0000 -0.9643
vn 0.7440 -0.0000 -0.6681
vn 0.9991 0.0000 0.0413
vn 0.2406 0.0000 -0.9706
vn 0.9927 -0.0000 0.1207
vn 0.8018 0.0000 -0.5976
vn -0.7030 0.0000 -0.7112
vn 0.7166 0.0000 0.6975
vn -0.7765 0.0000 0.6301
vn 0.7204 0.0000 -0.6936
vn -0.7867 0.0000 -0.6173
vn 0.7985 0.0000 0.6020
vn -0.6913 0.0000 0.7226
vn 0.6345 0.0000 -0.7729
vn -0.8534 0.0000 -0.5212
vn 0.8633 0.0000 0.5047
vn -0.6022 0.0000 0.7983
vn -0.8065 0.0000 -0.5912
vn 0.8248 0.0000 0.5654
vn -0.0804 0.0000 0.9968
vn 0.9990 0.0000 0.0443
vn -0.9999 0.0000 -0.0126
vn 0.0079 0.0000 -1.0000
vn 0.5859 0.0000 -0.8104
vn -0.8550 0.0000 -0.5187
vn 0.8320 0.0000 0.5547
vn -0.7506 0.0000 0.6607
vn 0.1835 0.0000 -0.9830
vn -0.9886 0.0000 -0.1502
vn 0.9917 0.0000 0.1285
vn -0.1429 0.0000 0.9897
vn 0.5199 0.0000 -0.8542
vn -0.9181 0.0000 -0.3964
vn 0.9255 0.0000 0.3787
vn -0.4843 0.0000 0.8749
vn 0.4855 0.0000 -0.8742
vn -0.9331 0.0000 -0.3596
vn 0.9399 0.0000 0.3416
vn -0.4492 0.0000 0.8935
vn 0.4209 0.0000 -0.9071
vn -0.9567 0.0000 -0.2910
vn 0.9621 0.0000 0.2725
vn -0.3832 0.0000 0.9237
vn -0.5415 0.0000 -0.8407
vn -0.7575 0.0000 0.6528
vn 0.7448 0.0000 -0.6673
vn 0.5756 0.0000 0.8177
vn -0.8981 0.0000 -0.4398
vn -0.3110 0.0000 0.9504
vn 0.2926 0.0000 -0.9562
vn 0.9154 0.0000 0.4024
vn -0.9529 0.0000 -0.3031
vn -0.1681 0.0000 0.9858
vn 0.1490 0.0000 -0.9888
vn 0.9646 0.0000 0.2637
vn -0.1534 0.0000 0.9882
vn 0.9999 0.0000 0.0149
vn -1.0000 0.0000 0.0044
vn 0.1126 0.0000 -0.9936
vn -0.4456 0.0000 0.8952
vn 0.9484 0.0000 0.3172
vn -0.9543 0.0000 -0.2989
vn 0.4084 0.0000 -0.9128
vn -0.3064 0.0000 0.9519
vn 0.9852 0.0000 0.1714
vn -0.9883 0.0000 -0.1524
vn 0.2669 0.0000 -0.9637
vn -0.1928 0.0000 0.9812
vn 0.9985 0.0000 0.0549
vn -0.9994 0.0000 -0.0357
vn 0.1523 0.0000 -0.9883
vn -0.3118 0.0000 0.9502
vn 0.9842 0.0000 0.1770
vn -0.9874 0.0000 -0.1581
vn 0.2724 0.0000 -0.9622
vn -0.5332 0.0000 0.8460
vn 0.9117 0.0000 0.4107
vn -0.9195 0.0000 -0.3931
vn 0.4979 0.0000 -0.8672
vn -0.8532 0.0000 -0.5217
vn -0.3983 0.0000 0.9172
vn 0.3806 0.0000 -0.9247
vn 0.8739 0.0000 0.4861
vn -0.9554 0.0000 -0.2952
vn -0.1599 0.0000 0.9871
vn 0.1409 0.0000 -0.9900
vn 0.9668 0.0000 0.2557
vn -0.9973 0.0000 -0.0736
vn 0.0654 0.0000 0.9979
vn -0.0846 0.0000 -0.9964
vn 0.9995 0.0000 0.0325
vn -0.7917 0.0000 -0.6109
vn -0.4952 0.0000 0.8688
vn 0.4784 0.0000 -0.8781
vn 0.8162 0.0000 0.5778
vn 0.9971 0.0000 0.0755
vn 0.0593 0.0000 -0.9982
vn -0.0209 0.0000 0.9998
vn -1.0000 0.0000 -0.0029
vn 0.0273 0.0000 -0.9996
vn -0.9999 0.0000 0.0107
vn 0.9961 0.0000 0.0882
vn 0.0089 0.0000 1.0000
vn 0.7044 0.0000 -0.7098
vn -0.8006 0.0000 -0.5992
vn 0.8120 0.0000 0.5837
vn -0.6746 0.0000 0.7382
vn -0.7566 0.0000 -0.6539
vn -0.5427 0.0000 0.8399
vn 0.5265 0.0000 -0.8502
vn 0.7828 0.0000 0.6223
vn 0.7363 0.0000 -0.6767
vn -0.7722 0.0000 -0.6354
vn 0.7843 0.0000 0.6204
vn -0.7078 0.0000 0.7064
vn 0.5718 0.0000 -0.8204
vn -0.8917 0.0000 -0.4526
vn 0.9003 0.0000 0.4353
vn -0.5376 0.0000 0.8432
vn 0.7875 0.0000 -0.6163
vn -0.7195 0.0000 -0.6945
vn 0.7327 0.0000 0.6805
vn -0.7615 0.0000 0.6481
vn 0.6491 0.0000 -0.7607
vn -0.8433 0.0000 -0.5374
vn 0.8535 0.0000 0.5211
vn -0.6173 0.0000 0.7867
vn 0.9990 0.0000 -0.0445
vn -0.1826 0.0000 -0.9832
vn 0.2015 0.0000 0.9795
vn -0.9963 0.0000 0.0855
vn 0.9093 0.0000 -0.4161
vn -0.5382 0.0000 -0.8428
vn 0.5543 0.0000 0.8323
vn -0.8914 0.0000 0.4532
vn 0.9654 0.0000 -0.2607
vn -0.5183 0.0000 0.8552
vn -0.1917 0.0000 0.9815
vn -0.7140 0.0000 0.7001
vn 0.9294 0.0000 -0.3690
vn 0.0533 0.0000 -0.9986
vn -0.1291 0.0000 0.9916
vn -0.9705 0.0000 0.2411
vn -0.0629 0.0000 0.9980
vn 0.9884 0.0000 0.1521
vn 0.1207 0.0000 -0.9927
vn 0.1917 0.0000 -0.9815
vn 0.0849 0.0000 -0.9964
vn -0.0841 0.0000 -0.9965
vn 0.6353 0.0000 -0.7722
vn -0.5776 0.0000 0.8163
vn 0.5925 0.0000 -0.8055
vn 0.1606 0.0000 -0.9870
vn 0.5400 0.0000 -0.8417
vn -0.9655 0.0000 0.2605
vn -0.1106 0.0000 0.9939
vn -0.5388 0.0000 0.8424
vn 0.6719 0.0000 -0.7407
vn 0.4221 0.0000 -0.9065
vn 0.9601 0.0000 0.2796
vn -0.5643 0.0000 -0.8256
vn -0.3385 0.0000 0.9410
vn 0.6009 0.0000 0.7993
vn -0.9541 0.0000 -0.2994
vn 0.7140 0.0000 -0.7001
vn 0.9618 0.0000 0.2738
vn -0.6003 0.0000 -0.7998
vn -0.4760 0.0000 0.8794
vn -0.7004 0.0000 -0.7138
vn 0.5859 0.0000 0.8104
vn -0.6353 0.0000 0.7722
vn 0.6743 0.0000 0.7384
vn 0.4875 0.0000 -0.8731
vn 0.5623 0.0000 -0.8269
vn -0.8527 0.0000 -0.5225
vn -0.0565 0.0000 0.9984
vn -0.5578 0.0000 -0.8300
vn 0.9871 0.0000 0.1599
vn 0.5803 0.0000 0.8144
vn -0.9712 0.0000 -0.2383
vn 0.0270 0.0000 -0.9996
vn -0.0079 0.0000 -1.0000
vn 0.9783 0.0000 0.2071
vn -0.5601 0.0000 0.8284
vn -0.9743 0.0000 -0.2255
vn -0.1884 0.0000 0.9821
vn 0.9678 0.0000 0.2516
vn -0.6009 0.0000 -0.7993
vn 0.5828 0.0000 0.8126
vn 0.5643 0.0000 0.8256
vn -0.0178 0.0000 -0.9998
vn -0.1848 0.0000 0.9828
vn 0.7004 0.0000 0.7138
vn 0.0490 0.0000 -0.9988
vn -0.1122 0.0000 0.9937
vn -0.0143 0.0000 0.9999
vn 0.2626 0.0000 -0.9649
vn -0.2626 0.0000 0.9649
vn 0.5807 0.0000 -0.8141
vn 0.5264 0.0000 -0.8502
vn -0.9871 0.0000 -0.1599
usemtl Amsterdam
s off
f 52/80/49 575/81/49 576/82/49 61/83/49 578/84/49 577/85/49
f 611/86/50 613/87/50 760/88/50 759/89/50
f 691/90/51 692/91/51 846/92/51 845/93/51
f 91/94/52 90/95/52 101/96/52 100/97/52 99/98/52 98/99/52 97/100/52 96/101/52 95/102/52 94/103/52 93/104/52 92/105/52
f 103/106/52 102/107/52 113/108/52 112/109/52 111/110/52 110/111/52 109/112/52 108/113/52 107/114/52 106/115/52 105/116/52 104/117/52 617/118/52 612/119/52
f 115/120/52 114/121/52 128/122/52 127/123/52 688/124/52 126/125/52 125/126/52 124/127/52 123/128/52 122/129/52 121/130/52 120/131/52 119/132/52 118/133/52 117/134/52 116/135/52
f 74/136/53 586/137/53 588/138/53 590/139/53 592/140/53 594/141/53 595/142/53 73/143/53 112/109/53 113/108/53
f 60/144/54 565/145/54 561/146/54 563/147/54 59/148/54 98/99/54 99/98/54
f 89/149/55 705/150/55 703/151/55 701/152/55 699/153/55 697/154/55 696/155/55 88/156/55 127/123/55 128/122/55
f 76/157/56 694/158/56 695/159/56 698/160/56 700/161/56 702/162/56 704/163/56 706/164/56 75/165/56 114/121/56 115/120/56
f 61/83/57 576/82/57 574/166/57 571/167/57 570/168/57 568/169/57 60/144/57 99/98/57 100/97/57
f 75/165/58 89/149/58 128/122/58 114/121/58
f 77/170/59 675/171/59 677/172/59 679/173/59 681/174/59 683/175/59 684/176/59 687/177/59 689/178/59 691/90/59 76/157/59 115/120/59 116/135/59
f 62/179/60 583/180/60 582/181/60 580/182/60 578/84/60 61/83/60 100/97/60 101/96/60
f 51/183/61 62/179/61 101/96/61 90/95/61
f 78/184/62 665/185/62 663/186/62 661/187/62 77/170/62 116/135/62 117/134/62
f 64/188/63 596/189/63 593/190/63 591/191/63 589/192/63 587/193/63 585/194/63 63/195/63 102/107/63 103/106/63
f 63/195/64 74/136/64 113/108/64 102/107/64
f 79/196/65 670/197/65 668/198/65 666/199/65 78/184/65 117/134/65 118/133/65
f 65/200/66 618/201/66 617/118/66 104/117/66
f 80/202/67 673/203/67 79/196/67 118/133/67 119/132/67
f 66/204/68 629/205/68 627/206/68 626/207/68 623/208/68 622/209/68 619/210/68 65/200/68 104/117/68 105/116/68
f 52/80/69 577/85/69 579/211/69 581/212/69 584/213/69 51/183/69 90/95/69 91/94/69
f 81/214/70 80/202/70 119/132/70 120/131/70
f 67/215/71 638/216/71 635/217/71 634/218/71 632/219/71 66/204/71 105/116/71 106/115/71
f 53/220/72 567/221/72 569/222/72 572/223/72 573/224/72 575/81/72 52/80/72 91/94/72 92/105/72
f 82/225/73 81/214/73 120/131/73 121/130/73
f 68/226/74 641/227/74 639/228/74 67/215/74 106/115/74 107/114/74
f 54/229/75 564/230/75 562/231/75 566/232/75 53/220/75 92/105/75 93/104/75
f 83/233/76 671/234/76 672/235/76 82/225/76 121/130/76 122/129/76
f 69/236/77 68/226/77 107/114/77 108/113/77
f 55/237/78 652/238/78 653/239/78 656/240/78 658/241/78 660/242/78 54/229/78 93/104/78 94/103/78
f 84/243/79 669/244/79 83/233/79 122/129/79 123/128/79
f 70/245/80 640/246/80 642/247/80 69/236/80 108/113/80 109/112/80
f 56/248/81 643/249/81 646/250/81 648/251/81 650/252/81 55/237/81 94/103/81 95/102/81
f 85/253/82 667/254/82 84/243/82 123/128/82 124/127/82
f 71/255/83 631/256/83 633/257/83 636/258/83 637/259/83 70/245/83 109/112/83 110/111/83
f 57/260/84 56/248/84 95/102/84 96/101/84
f 86/261/85 664/262/85 85/253/85 124/127/85 125/126/85
f 72/263/86 620/264/86 621/265/86 624/266/86 625/267/86 628/268/86 630/269/86 71/255/86 110/111/86 111/110/86
f 58/270/87 649/271/87 647/272/87 645/273/87 644/274/87 57/260/87 96/101/87 97/100/87
f 87/275/88 662/276/88 86/261/88 125/126/88 126/125/88
f 73/143/89 597/277/89 599/278/89 601/279/89 603/280/89 605/281/89 607/282/89 609/283/89 611/86/89 614/284/89 616/285/89 72/263/89 111/110/89 112/109/89
f 59/148/90 659/286/90 657/287/90 655/288/90 654/289/90 651/290/90 58/270/90 97/100/90 98/99/90
f 88/156/91 693/291/91 692/91/91 690/292/91 686/293/91 688/124/91 127/123/91
f 130/294/52 129/295/52 132/296/52 131/297/52
f 134/298/49 135/299/49 136/300/49 133/301/49
f 130/294/92 131/297/92 135/299/92 134/298/92
f 131/297/93 132/296/93 136/300/93 135/299/93
f 129/295/94 130/294/94 134/298/94 133/301/94
f 132/296/95 129/295/95 133/301/95 136/300/95
f 138/302/52 137/303/52 140/304/52 139/305/52
f 142/306/49 143/307/49 144/308/49 141/309/49
f 138/302/92 139/305/92 143/307/92 142/306/92
f 139/305/93 140/304/93 144/308/93 143/307/93
f 137/303/94 138/302/94 142/306/94 141/309/94
f 140/304/95 137/303/95 141/309/95 144/308/95
f 146/310/52 145/311/52 148/312/52 147/313/52
f 150/314/49 151/315/49 152/316/49 149/317/49
f 146/310/96 147/313/96 151/315/96 150/314/96
f 147/313/97 148/312/97 152/316/97 151/315/97
f 145/311/98 146/310/98 150/314/98 149/317/98
f 148/312/99 145/311/99 149/317/99 152/316/99
f 154/318/52 153/319/52 156/320/52 155/321/52
f 158/322/49 159/323/49 160/324/49 157/325/49
f 154/318/96 155/321/96 159/323/96 158/322/96
f 155/321/97 156/320/97 160/324/97 159/323/97
f 153/319/98 154/318/98 158/322/98 157/325/98
f 156/320/99 153/319/99 157/325/99 160/324/99
f 162/326/52 161/327/52 164/328/52 163/329/52
f 166/330/49 167/331/49 168/332/49 165/333/49
f 162/326/96 163/329/96 167/331/96 166/330/96
f 163/329/97 164/328/97 168/332/97 167/331/97
f 161/327/98 162/326/98 166/330/98 165/333/98
f 164/328/99 161/327/99 165/333/99 168/332/99
f 170/334/52 169/335/52 172/336/52 171/337/52
f 174/338/49 175/339/49 176/340/49 173/341/49
f 170/334/100 171/337/100 175/339/100 174/338/100
f 171/337/101 172/336/101 176/340/101 175/339/101
f 169/335/102 170/334/102 174/338/102 173/341/102
f 172/336/103 169/335/103 173/341/103 176/340/103
f 178/342/52 177/343/52 180/344/52 179/345/52
f 182/346/49 183/347/49 184/348/49 181/349/49
f 178/342/100 179/345/100 183/347/100 182/346/100
f 179/345/104 180/344/104 184/348/104 183/347/104
f 177/343/105 178/342/105 182/346/105 181/349/105
f 180/344/103 177/343/103 181/349/103 184/348/103
f 192/350/106 191/351/106 187/352/106 188/353/106
f 191/351/52 192/350/52 189/354/52 190/355/52
f 191/351/107 190/355/107 186/356/107 187/352/107
f 187/352/49 186/356/49 185/357/49 188/353/49
f 189/354/108 192/350/108 188/353/108 185/357/108
f 190/355/109 189/354/109 185/357/109 186/356/109
f 194/358/52 193/359/52 196/360/52 195/361/52
f 198/362/49 199/363/49 200/364/49 197/365/49
f 194/358/110 195/361/110 199/363/110 198/362/110
f 195/361/111 196/360/111 200/364/111 199/363/111
f 193/359/112 194/358/112 198/362/112 197/365/112
f 196/360/113 193/359/113 197/365/113 200/364/113
f 202/366/52 201/367/52 204/368/52 203/369/52
f 206/370/49 207/371/49 208/372/49 205/373/49
f 202/366/114 203/369/114 207/371/114 206/370/114
f 203/369/115 204/368/115 208/372/115 207/371/115
f 201/367/116 202/366/116 206/370/116 205/373/116
f 204/368/117 201/367/117 205/373/117 208/372/117
f 210/374/52 209/375/52 212/376/52 211/377/52
f 214/378/49 215/379/49 216/380/49 213/381/49
f 210/374/118 211/377/118 215/379/118 214/378/118
f 211/377/119 212/376/119 216/380/119 215/379/119
f 209/375/120 210/374/120 214/378/120 213/381/120
f 212/376/121 209/375/121 213/381/121 216/380/121
f 218/382/52 217/383/52 220/384/52 219/385/52
f 222/386/49 223/387/49 224/388/49 221/389/49
f 218/382/122 219/385/122 223/387/122 222/386/122
f 219/385/123 220/384/123 224/388/123 223/387/123
f 217/383/124 218/382/124 222/386/124 221/389/124
f 220/384/125 217/383/125 221/389/125 224/388/125
f 226/390/52 225/391/52 228/392/52 227/393/52
f 230/394/49 231/395/49 232/396/49 229/397/49
f 226/390/126 227/393/126 231/395/126 230/394/126
f 227/393/127 228/392/127 232/396/127 231/395/127
f 225/391/128 226/390/128 230/394/128 229/397/128
f 228/392/129 225/391/129 229/397/129 232/396/129
f 234/398/52 233/399/52 236/400/52 235/401/52
f 238/402/49 239/403/49 240/404/49 237/405/49
f 234/398/130 235/401/130 239/403/130 238/402/130
f 235/401/131 236/400/131 240/404/131 239/403/131
f 233/399/132 234/398/132 238/402/132 237/405/132
f 236/400/133 233/399/133 237/405/133 240/404/133
f 242/406/52 241/407/52 244/408/52 243/409/52
f 246/410/49 247/411/49 248/412/49 245/413/49
f 242/406/134 243/409/134 247/411/134 246/410/134
f 243/409/135 244/408/135 248/412/135 247/411/135
f 241/407/136 242/406/136 246/410/136 245/413/136
f 244/408/137 241/407/137 245/413/137 248/412/137
f 250/414/52 249/415/52 252/416/52 251/417/52
f 254/418/49 255/419/49 256/420/49 253/421/49
f 250/414/138 251/417/138 255/419/138 254/418/138
f 251/417/139 252/416/139 256/420/139 255/419/139
f 249/415/140 250/414/140 254/418/140 253/421/140
f 252/416/141 249/415/141 253/421/141 256/420/141
f 258/422/52 257/423/52 260/424/52 259/425/52
f 262/426/49 263/427/49 264/428/49 261/429/49
f 258/422/142 259/425/142 263/427/142 262/426/142
f 259/425/143 260/424/143 264/428/143 263/427/143
f 257/423/144 258/422/144 262/426/144 261/429/144
f 260/424/145 257/423/145 261/429/145 264/428/145
f 266/430/52 265/431/52 268/432/52 267/433/52
f 270/434/49 271/435/49 272/436/49 269/437/49
f 266/430/146 267/433/146 271/435/146 270/434/146
f 267/433/147 268/432/147 272/436/147 271/435/147
f 265/431/148 266/430/148 270/434/148 269/437/148
f 268/432/149 265/431/149 269/437/149 272/436/149
f 274/438/52 273/439/52 276/440/52 275/441/52
f 278/442/49 279/443/49 280/444/49 277/445/49
f 274/438/150 275/441/150 279/443/150 278/442/150
f 275/441/151 276/440/151 280/444/151 279/443/151
f 273/439/152 274/438/152 278/442/152 277/445/152
f 276/440/153 273/439/153 277/445/153 280/444/153
f 282/446/52 281/447/52 284/448/52 283/449/52
f 286/450/49 287/451/49 288/452/49 285/453/49
f 282/446/154 283/449/154 287/451/154 286/450/154
f 283/449/155 284/448/155 288/452/155 287/451/155
f 281/447/156 282/446/156 286/450/156 285/453/156
f 284/448/157 281/447/157 285/453/157 288/452/157
f 290/454/52 289/455/52 292/456/52 291/457/52
f 294/458/49 295/459/49 296/460/49 293/461/49
f 290/454/154 291/457/154 295/459/154 294/458/154
f 291/457/155 292/456/155 296/460/155 295/459/155
f 289/455/156 290/454/156 294/458/156 293/461/156
f 292/456/157 289/455/157 293/461/157 296/460/157
f 298/462/52 297/463/52 300/464/52 299/465/52
f 302/466/49 303/467/49 304/468/49 301/469/49
f 298/462/158 299/465/158 303/467/158 302/466/158
f 299/465/159 300/464/159 304/468/159 303/467/159
f 297/463/160 298/462/160 302/466/160 301/469/160
f 300/464/161 297/463/161 301/469/161 304/468/161
f 306/470/52 305/471/52 308/472/52 307/473/52
f 310/474/49 311/475/49 312/476/49 309/477/49
f 306/470/162 307/473/162 311/475/162 310/474/162
f 307/473/163 308/472/163 312/476/163 311/475/163
f 305/471/164 306/470/164 310/474/164 309/477/164
f 308/472/165 305/471/165 309/477/165 312/476/165
f 314/478/52 313/479/52 316/480/52 315/481/52
f 318/482/49 319/483/49 320/484/49 317/485/49
f 314/478/166 315/481/166 319/483/166 318/482/166
f 315/481/167 316/480/167 320/484/167 319/483/167
f 313/479/168 314/478/168 318/482/168 317/485/168
f 316/480/169 313/479/169 317/485/169 320/484/169
f 322/486/52 321/487/52 324/488/52 323/489/52
f 326/490/49 327/491/49 328/492/49 325/493/49
f 322/486/170 323/489/170 327/491/170 326/490/170
f 323/489/171 324/488/171 328/492/171 327/491/171
f 321/487/172 322/486/172 326/490/172 325/493/172
f 324/488/173 321/487/173 325/493/173 328/492/173
f 330/494/52 329/495/52 332/496/52 331/497/52
f 334/498/49 335/499/49 336/500/49 333/501/49
f 330/494/174 331/497/174 335/499/174 334/498/174
f 331/497/175 332/496/175 336/500/175 335/499/175
f 329/495/176 330/494/176 334/498/176 333/501/176
f 332/496/177 329/495/177 333/501/177 336/500/177
f 338/502/52 337/503/52 340/504/52 339/505/52
f 342/506/49 343/507/49 344/508/49 341/509/49
f 338/502/178 339/505/178 343/507/178 342/506/178
f 339/505/179 340/504/179 344/508/179 343/507/179
f 337/503/180 338/502/180 342/506/180 341/509/180
f 340/504/181 337/503/181 341/509/181 344/508/181
f 352/510/106 351/511/106 347/512/106 348/513/106
f 351/511/52 352/510/52 349/514/52 350/515/52
f 351/511/107 350/515/107 346/516/107 347/512/107
f 347/512/49 346/516/49 345/517/49 348/513/49
f 349/514/108 352/510/108 348/513/108 345/517/108
f 350/515/109 349/514/109 345/517/109 346/516/109
f 360/518/182 359/519/182 355/520/182 356/521/182
f 359/519/52 360/518/52 357/522/52 358/523/52
f 359/519/183 358/523/183 354/524/183 355/520/183
f 355/520/49 354/524/49 353/525/49 356/521/49
f 357/522/184 360/518/184 356/521/184 353/525/184
f 358/523/185 357/522/185 353/525/185 354/524/185
f 362/526/52 361/527/52 364/528/52 363/529/52
f 366/530/49 367/531/49 368/532/49 365/533/49
f 362/526/186 363/529/186 367/531/186 366/530/186
f 363/529/187 364/528/187 368/532/187 367/531/187
f 361/527/188 362/526/188 366/530/188 365/533/188
f 364/528/189 361/527/189 365/533/189 368/532/189
f 370/534/52 369/535/52 372/536/52 371/537/52
f 374/538/49 375/539/49 376/540/49 373/541/49
f 370/534/178 371/537/178 375/539/178 374/538/178
f 371/537/179 372/536/179 376/540/179 375/539/179
f 369/535/180 370/534/180 374/538/180 373/541/180
f 372/536/181 369/535/181 373/541/181 376/540/181
f 378/542/52 377/543/52 380/544/52 379/545/52
f 382/546/49 383/547/49 384/548/49 381/549/49
f 378/542/178 379/545/178 383/547/178 382/546/178
f 379/545/179 380/544/179 384/548/179 383/547/179
f 377/543/180 378/542/180 382/546/180 381/549/180
f 380/544/181 377/543/181 381/549/181 384/548/181
f 386/550/52 385/551/52 388/552/52 387/553/52
f 390/554/49 391/555/49 392/556/49 389/557/49
f 386/550/178 387/553/178 391/555/178 390/554/178
f 387/553/179 388/552/179 392/556/179 391/555/179
f 385/551/180 386/550/180 390/554/180 389/557/180
f 388/552/181 385/551/181 389/557/181 392/556/181
f 394/558/52 393/559/52 396/560/52 395/561/52
f 398/562/49 399/563/49 400/564/49 397/565/49
f 394/558/178 395/561/178 399/563/178 398/562/178
f 395/561/179 396/560/179 400/564/179 399/563/179
f 393/559/180 394/558/180 398/562/180 397/565/180
f 396/560/181 393/559/181 397/565/181 400/564/181
f 402/566/52 401/567/52 404/568/52 403/569/52
f 406/570/49 407/571/49 408/572/49 405/573/49
f 402/566/178 403/569/178 407/571/178 406/570/178
f 403/569/179 404/568/179 408/572/179 407/571/179
f 401/567/180 402/566/180 406/570/180 405/573/180
f 404/568/181 401/567/181 405/573/181 408/572/181
f 410/574/52 409/575/52 412/576/52 411/577/52
f 414/578/49 415/579/49 416/580/49 413/581/49
f 410/574/178 411/577/178 415/579/178 414/578/178
f 411/577/179 412/576/179 416/580/179 415/579/179
f 409/575/180 410/574/180 414/578/180 413/581/180
f 412/576/181 409/575/181 413/581/181 416/580/181
f 418/582/52 417/583/52 420/584/52 419/585/52
f 422/586/49 423/587/49 424/588/49 421/589/49
f 418/582/178 419/585/178 423/587/178 422/586/178
f 419/585/179 420/584/179 424/588/179 423/587/179
f 417/583/180 418/582/180 422/586/180 421/589/180
f 420/584/181 417/583/181 421/589/181 424/588/181
f 426/590/52 425/591/52 428/592/52 427/593/52
f 430/594/49 431/595/49 432/596/49 429/597/49
f 426/590/190 427/593/190 431/595/190 430/594/190
f 427/593/191 428/592/191 432/596/191 431/595/191
f 425/591/192 426/590/192 430/594/192 429/597/192
f 428/592/193 425/591/193 429/597/193 432/596/193
f 434/598/52 433/599/52 436/600/52 435/601/52
f 438/602/49 439/603/49 440/604/49 437/605/49
f 434/598/190 435/601/190 439/603/190 438/602/190
f 435/601/191 436/600/191 440/604/191 439/603/191
f 433/599/192 434/598/192 438/602/192 437/605/192
f 436/600/193 433/599/193 437/605/193 440/604/193
f 442/606/52 441/607/52 444/608/52 443/609/52
f 446/610/49 447/611/49 448/612/49 445/613/49
f 442/606/194 443/609/194 447/611/194 446/610/194
f 443/609/195 444/608/195 448/612/195 447/611/195
f 441/607/196 442/606/196 446/610/196 445/613/196
f 444/608/197 441/607/197 445/613/197 448/612/197
f 450/614/52 449/615/52 452/616/52 451/617/52
f 454/618/49 455/619/49 456/620/49 453/621/49
f 450/614/198 451/617/198 455/619/198 454/618/198
f 451/617/199 452/616/199 456/620/199 455/619/199
f 449/615/200 450/614/200 454/618/200 453/621/200
f 452/616/201 449/615/201 453/621/201 456/620/201
f 458/622/52 457/623/52 460/624/52 459/625/52
f 462/626/49 463/627/49 464/628/49 461/629/49
f 458/622/202 459/625/202 463/627/202 462/626/202
f 459/625/203 460/624/203 464/628/203 463/627/203
f 457/623/204 458/622/204 462/626/204 461/629/204
f 460/624/205 457/623/205 461/629/205 464/628/205
f 466/630/52 465/631/52 468/632/52 467/633/52
f 470/634/49 471/635/49 472/636/49 469/637/49
f 466/630/206 467/633/206 471/635/206 470/634/206
f 467/633/207 468/632/207 472/636/207 471/635/207
f 465/631/208 466/630/208 470/634/208 469/637/208
f 468/632/209 465/631/209 469/637/209 472/636/209
f 474/638/52 473/639/52 476/640/52 475/641/52
f 478/642/49 479/643/49 480/644/49 477/645/49
f 474/638/206 475/641/206 479/643/206 478/642/206
f 475/641/207 476/640/207 480/644/207 479/643/207
f 473/639/208 474/638/208 478/642/208 477/645/208
f 476/640/209 473/639/209 477/645/209 480/644/209
f 482/646/52 481/647/52 484/648/52 483/649/52
f 486/650/49 487/651/49 488/652/49 485/653/49
f 482/646/206 483/649/206 487/651/206 486/650/206
f 483/649/207 484/648/207 488/652/207 487/651/207
f 481/647/208 482/646/208 486/650/208 485/653/208
f 484/648/209 481/647/209 485/653/209 488/652/209
f 490/654/52 489/655/52 492/656/52 491/657/52
f 494/658/49 495/659/49 496/660/49 493/661/49
f 490/654/206 491/657/206 495/659/206 494/658/206
f 491/657/207 492/656/207 496/660/207 495/659/207
f 489/655/208 490/654/208 494/658/208 493/661/208
f 492/656/209 489/655/209 493/661/209 496/660/209
f 498/662/52 497/663/52 500/664/52 499/665/52
f 502/666/49 503/667/49 504/668/49 501/669/49
f 498/662/210 499/665/210 503/667/210 502/666/210
f 499/665/211 500/664/211 504/668/211 503/667/211
f 497/663/212 498/662/212 502/666/212 501/669/212
f 500/664/213 497/663/213 501/669/213 504/668/213
f 506/670/52 505/671/52 508/672/52 507/673/52
f 510/674/49 511/675/49 512/676/49 509/677/49
f 506/670/210 507/673/210 511/675/210 510/674/210
f 507/673/211 508/672/211 512/676/211 511/675/211
f 505/671/212 506/670/212 510/674/212 509/677/212
f 508/672/213 505/671/213 509/677/213 512/676/213
f 514/678/52 513/679/52 516/680/52 515/681/52
f 518/682/49 519/683/49 520/684/49 517/685/49
f 514/678/210 515/681/210 519/683/210 518/682/210
f 515/681/211 516/680/211 520/684/211 519/683/211
f 513/679/212 514/678/212 518/682/212 517/685/212
f 516/680/213 513/679/213 517/685/213 520/684/213
f 522/686/52 521/687/52 524/688/52 523/689/52
f 526/690/49 527/691/49 528/692/49 525/693/49
f 522/686/210 523/689/210 527/691/210 526/690/210
f 523/689/211 524/688/211 528/692/211 527/691/211
f 521/687/212 522/686/212 526/690/212 525/693/212
f 524/688/213 521/687/213 525/693/213 528/692/213
f 530/694/52 529/695/52 532/696/52 531/697/52
f 534/698/49 535/699/49 536/700/49 533/701/49
f 530/694/210 531/697/210 535/699/210 534/698/210
f 531/697/211 532/696/211 536/700/211 535/699/211
f 529/695/212 530/694/212 534/698/212 533/701/212
f 532/696/213 529/695/213 533/701/213 536/700/213
f 538/702/52 537/703/52 540/704/52 539/705/52
f 542/706/49 543/707/49 544/708/49 541/709/49
f 538/702/210 539/705/210 543/707/210 542/706/210
f 539/705/211 540/704/211 544/708/211 543/707/211
f 537/703/212 538/702/212 542/706/212 541/709/212
f 540/704/213 537/703/213 541/709/213 544/708/213
f 546/710/52 545/711/52 548/712/52 547/713/52
f 550/714/49 551/715/49 552/716/49 549/717/49
f 546/710/214 547/713/214 551/715/214 550/714/214
f 547/713/215 548/712/215 552/716/215 551/715/215
f 545/711/216 546/710/216 550/714/216 549/717/216
f 548/712/217 545/711/217 549/717/217 552/716/217
f 554/718/52 553/719/52 556/720/52 555/721/52
f 558/722/49 559/723/49 560/724/49 557/725/49
f 554/718/218 555/721/218 559/723/218 558/722/218
f 555/721/219 556/720/219 560/724/219 559/723/219
f 553/719/220 554/718/220 558/722/220 557/725/220
f 556/720/221 553/719/221 557/725/221 560/724/221
f 716/726/49 749/727/49 717/728/49 718/729/49 748/730/49 715/731/49
f 561/146/49 562/231/49 564/230/49 563/147/49
f 645/273/87 647/272/87 781/732/87 780/733/87
f 565/145/49 566/232/49 562/231/49 561/146/49
f 678/734/91 680/735/91 800/736/91 799/737/91
f 570/168/49 569/222/49 567/221/49 568/169/49
f 571/167/49 572/223/49 569/222/49 570/168/49
f 646/250/222 645/273/222 780/733/222 779/738/222
f 576/82/49 575/81/49 573/224/49 574/166/49
f 597/277/89 73/143/89 718/729/89 717/728/89
f 579/211/49 580/182/49 582/181/49 581/212/49
f 577/85/223 578/84/223 734/739/223 733/740/223
f 584/213/49 583/180/49 62/179/49 51/183/49
f 585/194/49 586/137/49 74/136/49 63/195/49
f 679/173/224 678/734/224 799/737/224 798/741/224
f 589/192/49 590/139/49 588/138/49 587/193/49
f 591/191/225 592/140/225 857/742/225 860/743/225
f 648/251/81 646/250/81 779/738/81 778/744/81
f 596/189/49 595/142/49 594/141/49 593/190/49
f 597/277/49 598/745/49 600/746/49 599/278/49
f 599/278/49 600/746/49 602/747/49 601/279/49
f 681/174/59 679/173/59 798/741/59 797/748/59
f 603/280/49 604/749/49 606/750/49 605/281/49
f 579/211/69 577/85/69 733/740/69 732/751/69
f 607/282/49 608/752/49 610/753/49 609/283/49
f 609/283/49 610/753/49 613/87/49 611/86/49
f 612/119/66 613/87/66 610/753/66 608/752/66 606/750/66 604/749/66 602/747/66 600/746/66 598/745/66 64/188/66 103/106/66
f 614/284/89 611/86/89 759/89/89 758/754/89
f 614/284/49 615/755/49 618/201/49 616/285/49
f 617/118/66 618/201/66 615/755/66 613/87/66 612/119/66
f 618/201/66 65/200/66 814/756/66 813/757/66
f 641/227/226 642/247/226 774/758/226 777/759/226
f 622/209/68 623/208/68 812/760/68 811/761/68
f 624/266/49 623/208/49 626/207/49 625/267/49
f 574/166/227 573/224/227 728/762/227 731/763/227
f 628/268/49 627/206/49 629/205/49 630/269/49
f 630/269/49 629/205/49 66/204/49 632/219/49 631/256/49 71/255/49
f 631/256/49 632/219/49 634/218/49 633/257/49
f 608/752/228 607/282/228 754/764/228 757/765/228
f 636/258/49 635/217/49 638/216/49 637/259/49
f 637/259/49 638/216/49 67/215/49 639/228/49 640/246/49 70/245/49
f 571/167/57 574/166/57 731/763/57 730/766/57
f 642/247/49 641/227/49 68/226/49 69/236/49
f 644/274/49 643/249/49 56/248/49 57/260/49
f 645/273/49 646/250/49 643/249/49 644/274/49
f 606/750/66 608/752/66 757/765/66 756/767/66
f 649/271/49 650/252/49 648/251/49 647/272/49
f 651/290/49 652/238/49 55/237/49 650/252/49 649/271/49 58/270/49
f 654/289/49 653/239/49 652/238/49 651/290/49
f 639/228/74 641/227/74 777/759/74 776/768/74
f 640/246/229 639/228/229 776/768/229 775/769/229
f 659/286/49 660/242/49 658/241/49 657/287/49
f 572/223/230 571/167/230 730/766/230 729/770/230
f 86/261/49 663/186/49 665/185/49 664/262/49
f 596/189/63 64/188/63 716/726/63 715/731/63
f 668/198/231 669/244/231 861/771/231 865/772/231
f 669/244/49 668/198/49 670/197/49 671/234/49 83/233/49
f 605/281/232 606/750/232 756/767/232 755/773/232
f 672/235/49 79/196/49 673/203/49 82/225/49
f 82/225/49 673/203/49 80/202/49 81/214/49
f 675/171/59 77/170/59 824/774/59 823/775/59
f 676/776/49 677/172/49 675/171/49 674/777/49
f 678/734/233 679/173/233 819/778/233 822/779/233
f 642/247/80 640/246/80 775/769/80 774/758/80
f 682/780/49 683/175/49 681/174/49 680/735/49
f 685/781/49 684/176/49 683/175/49 682/780/49
f 686/293/234 687/177/234 835/782/234 838/783/234
f 688/124/91 686/293/91 685/781/91 682/780/91 680/735/91 678/734/91 676/776/91 674/777/91 87/275/91 126/125/91
f 690/292/49 689/178/49 687/177/49 686/293/49
f 692/91/235 691/90/235 839/784/235 842/785/235
f 696/155/236 695/159/236 850/786/236 852/787/236
f 573/224/72 572/223/72 729/770/72 728/762/72
f 698/160/49 697/154/49 699/153/49 700/161/49
f 700/161/237 699/153/237 855/788/237 854/789/237
f 702/162/49 701/152/49 703/151/49 704/163/49
f 705/150/238 706/164/238 805/790/238 808/791/238
f 706/164/49 705/150/49 89/149/49 75/165/49
f 725/792/49 709/793/49 710/794/49 788/795/49 711/796/49 712/797/49
f 727/798/49 707/799/49 708/800/49 726/801/49 713/802/49 714/803/49
f 731/763/49 728/762/49 729/770/49 730/766/49
f 733/740/49 734/739/49 735/804/49 732/751/49
f 737/805/49 738/806/49 739/807/49 736/808/49
f 743/809/49 740/810/49 741/811/49 742/812/49
f 747/813/49 744/814/49 745/815/49 746/816/49
f 751/817/49 752/818/49 753/819/49 750/820/49
f 755/773/49 756/767/49 757/765/49 754/764/49
f 759/89/49 760/88/49 761/821/49 758/754/49
f 763/822/49 764/823/49 765/824/49 762/825/49
f 767/826/49 768/827/49 769/828/49 766/829/49
f 771/830/49 772/831/49 773/832/49 770/833/49
f 775/769/49 776/768/49 777/759/49 774/758/49
f 781/732/49 778/744/49 779/738/49 780/733/49
f 785/834/49 782/835/49 783/836/49 784/837/49
f 787/838/49 786/839/49 782/835/49 785/834/49
f 790/840/49 791/841/49 792/842/49 789/843/49
f 793/844/49 719/845/49 720/846/49 794/847/49 723/848/49 724/849/49
f 796/850/49 721/851/49 722/852/49 795/853/49
f 800/736/49 797/748/49 798/741/49 799/737/49
f 802/854/49 803/855/49 804/856/49 801/857/49
f 806/858/49 807/859/49 808/791/49 805/790/49
f 578/84/60 580/182/60 735/804/60 734/739/60
f 680/735/239 681/174/239 797/748/239 800/736/239
f 580/182/240 579/211/240 732/751/240 735/804/240
f 647/272/241 648/251/241 778/744/241 781/732/241
f 613/87/66 615/755/66 761/821/66 760/88/66
f 584/213/69 581/212/69 737/805/69 736/808/69
f 665/185/62 78/184/62 720/846/62 719/845/62
f 615/755/242 614/284/242 758/754/242 761/821/242
f 670/197/65 79/196/65 722/852/65 721/851/65
f 581/212/243 582/181/243 738/806/243 737/805/243
f 582/181/60 583/180/60 739/807/60 738/806/60
f 583/180/244 584/213/244 736/808/244 739/807/244
f 656/240/78 653/239/78 783/836/78 782/835/78
f 667/254/82 85/253/82 724/849/82 723/848/82
f 588/138/53 586/137/53 741/811/53 740/810/53
f 621/265/86 620/264/86 763/822/86 762/825/86
f 586/137/245 585/194/245 742/812/245 741/811/245
f 653/239/246 654/289/246 784/837/246 783/836/246
f 620/264/247 619/210/247 764/823/247 763/822/247
f 585/194/63 587/193/63 743/809/63 742/812/63
f 654/289/90 655/288/90 785/834/90 784/837/90
f 658/241/78 656/240/78 782/835/78 786/839/78
f 619/210/68 622/209/68 765/824/68 764/823/68
f 587/193/248 588/138/248 740/810/248 743/809/248
f 622/209/249 621/265/249 762/825/249 765/824/249
f 655/288/90 657/287/90 787/838/90 785/834/90
f 657/287/250 658/241/250 786/839/250 787/838/250
f 628/268/86 625/267/86 767/826/86 766/829/86
f 594/141/53 592/140/53 745/815/53 744/814/53
f 54/229/78 660/242/78 788/795/78 710/794/78
f 592/140/251 591/191/251 746/816/251 745/815/251
f 660/242/252 659/286/252 711/796/252 788/795/252
f 625/267/253 626/207/253 768/827/253 767/826/253
f 591/191/63 593/190/63 747/813/63 746/816/63
f 626/207/68 627/206/68 769/828/68 768/827/68
f 86/261/88 662/276/88 790/840/88 789/843/88
f 698/160/56 695/159/56 802/854/56 801/857/56
f 593/190/254 594/141/254 744/814/254 747/813/254
f 662/276/255 661/187/255 791/841/255 790/840/255
f 627/206/256 628/268/256 766/829/256 769/828/256
f 73/143/53 595/142/53 748/730/53 718/729/53
f 661/187/62 663/186/62 792/842/62 791/841/62
f 695/159/257 696/155/257 803/855/257 802/854/257
f 663/186/258 86/261/258 789/843/258 792/842/258
f 696/155/55 697/154/55 804/856/55 803/855/55
f 595/142/259 596/189/259 715/731/259 748/730/259
f 85/253/85 664/262/85 793/844/85 724/849/85
f 59/148/54 563/147/54 725/792/54 712/797/54
f 697/154/260 698/160/260 801/857/260 804/856/260
f 64/188/66 598/745/66 749/727/66 716/726/66
f 664/262/261 665/185/261 719/845/261 793/844/261
f 598/745/262 597/277/262 717/728/262 749/727/262
f 78/184/65 666/199/65 794/847/65 720/846/65
f 563/147/263 564/230/263 709/793/263 725/792/263
f 636/258/83 633/257/83 771/830/83 770/833/83
f 666/199/264 667/254/264 723/848/264 794/847/264
f 53/220/75 566/232/75 726/801/75 708/800/75
f 567/221/72 53/220/72 708/800/72 707/799/72
f 566/232/265 565/145/265 713/802/265 726/801/265
f 564/230/75 54/229/75 710/794/75 709/793/75
f 633/257/266 634/218/266 772/831/266 771/830/266
f 603/280/89 601/279/89 751/817/89 750/820/89
f 634/218/71 635/217/71 773/832/71 772/831/71
f 60/144/57 568/169/57 727/798/57 714/803/57
f 601/279/267 602/747/267 752/818/267 751/817/267
f 568/169/268 567/221/268 707/799/268 727/798/268
f 635/217/269 636/258/269 770/833/269 773/832/269
f 706/164/56 704/163/56 806/858/56 805/790/56
f 672/235/76 671/234/76 796/850/76 795/853/76
f 704/163/270 703/151/270 807/859/270 806/858/270
f 602/747/66 604/749/66 753/819/66 752/818/66
f 671/234/271 670/197/271 721/851/271 796/850/271
f 659/286/90 59/148/90 712/797/90 711/796/90
f 703/151/55 705/150/55 808/791/55 807/859/55
f 604/749/272 603/280/272 750/820/272 753/819/272
f 565/145/54 60/144/54 714/803/54 713/802/54
f 607/282/89 605/281/89 755/773/89 754/764/89
f 79/196/273 672/235/273 795/853/273 722/852/273
f 810/860/49 811/761/49 812/760/49 809/861/49
f 621/265/274 622/209/274 811/761/274 810/860/274
f 624/266/86 621/265/86 810/860/86 809/861/86
f 623/208/275 624/266/275 809/861/275 812/760/275
f 817/862/49 813/757/49 814/756/49 818/863/49 815/864/49 816/865/49
f 72/263/89 616/285/89 817/862/89 816/865/89
f 619/210/276 620/264/276 815/864/276 818/863/276
f 620/264/86 72/263/86 816/865/86 815/864/86
f 65/200/68 619/210/68 818/863/68 814/756/68
f 616/285/277 618/201/277 813/757/277 817/862/277
f 822/779/49 819/778/49 820/866/49 821/867/49
f 676/776/91 678/734/91 822/779/91 821/867/91
f 679/173/59 677/172/59 820/866/59 819/778/59
f 677/172/278 676/776/278 821/867/278 820/866/278
f 827/868/279 825/869/279 831/870/279 833/871/279
f 674/777/280 675/171/280 823/775/280 828/872/280
f 87/275/91 674/777/91 828/872/91 826/873/91
f 662/276/88 87/275/88 826/873/88 825/869/88
f 661/187/279 662/276/279 825/869/279 827/868/279
f 77/170/62 661/187/62 827/868/62 824/774/62
f 834/874/49 829/875/49 830/876/49 833/871/49 831/870/49 832/877/49
f 825/869/88 826/873/88 832/877/88 831/870/88
f 826/873/91 828/872/91 834/874/91 832/877/91
f 824/774/62 827/868/62 833/871/62 830/876/62
f 823/775/59 824/774/59 830/876/59 829/875/59
f 828/872/280 823/775/280 829/875/280 834/874/280
f 838/783/49 835/782/49 836/878/49 837/879/49
f 684/176/281 685/781/281 837/879/281 836/878/281
f 687/177/59 684/176/59 836/878/59 835/782/59
f 685/781/91 686/293/91 838/783/91 837/879/91
f 842/785/49 839/784/49 840/880/49 841/881/49
f 690/292/91 692/91/91 842/785/91 841/881/91
f 689/178/282 690/292/282 841/881/282 840/880/282
f 691/90/59 689/178/59 840/880/59 839/784/59
f 844/882/49 845/93/49 846/92/49 847/883/49 843/884/49
f 76/157/59 691/90/59 845/93/59 844/882/59
f 693/291/283 694/158/283 843/884/283 847/883/283
f 694/158/56 76/157/56 844/882/56 843/884/56
f 692/91/91 693/291/91 847/883/91 846/92/91
f 851/885/49 848/886/49 849/887/49 852/787/49 850/786/49
f 693/291/91 88/156/91 849/887/91 848/886/91
f 695/159/56 694/158/56 851/885/56 850/786/56
f 88/156/55 696/155/55 852/787/55 849/887/55
f 694/158/284 693/291/284 848/886/284 851/885/284
f 854/789/49 855/788/49 856/888/49 853/889/49
f 701/152/285 702/162/285 853/889/285 856/888/285
f 699/153/55 701/152/55 856/888/55 855/788/55
f 702/162/56 700/161/56 854/789/56 853/889/56
f 860/743/49 857/742/49 858/890/49 859/891/49
f 589/192/63 591/191/63 860/743/63 859/891/63
f 592/140/53 590/139/53 858/890/53 857/742/53
f 590/139/286 589/192/286 859/891/286 858/890/286
f 863/892/49 864/893/49 865/772/49 861/771/49 862/894/49
f 666/199/65 668/198/65 865/772/65 864/893/65
f 84/243/82 667/254/82 863/892/82 862/894/82
f 669/244/79 84/243/79 862/894/79 861/771/79
f 667/254/287 666/199/287 864/893/287 863/892/287
o Office_1_ams_Icosphere.011
v -0.578330 -0.016511 -0.762541
v -0.565047 -0.006363 -0.752891
v -0.583404 -0.006363 -0.746926
v -0.594749 -0.006363 -0.762541
v -0.583404 -0.006363 -0.778157
v -0.565047 -0.006363 -0.772192
v -0.573257 0.010056 -0.746926
v -0.591613 0.010056 -0.752891
v -0.591613 0.010056 -0.772192
v -0.573257 0.010056 -0.778157
v -0.561911 0.010056 -0.762541
v -0.578330 0.020203 -0.762541
v -0.581312 -0.013769 -0.753363
v -0.570523 -0.013769 -0.756869
v -0.573505 -0.007805 -0.747690
v -0.562715 -0.007805 -0.762541
v -0.570523 -0.013769 -0.768214
v -0.587981 -0.013769 -0.762541
v -0.590963 -0.007805 -0.753363
v -0.581312 -0.013769 -0.771720
v -0.590963 -0.007805 -0.771720
v -0.573505 -0.007805 -0.777392
v -0.560872 0.001846 -0.756869
v -0.560872 0.001846 -0.768214
v -0.578330 0.001846 -0.744184
v -0.567540 0.001846 -0.747690
v -0.595789 0.001846 -0.756869
v -0.589120 0.001846 -0.747690
v -0.589120 0.001846 -0.777392
v -0.595789 0.001846 -0.768214
v -0.567540 0.001846 -0.777392
v -0.578330 0.001846 -0.780898
v -0.565697 0.011497 -0.753363
v -0.583156 0.011497 -0.747690
v -0.593946 0.011497 -0.762541
v -0.583156 0.011497 -0.777392
v -0.565697 0.011497 -0.771720
v -0.575348 0.017462 -0.753363
v -0.568680 0.017462 -0.762541
v -0.586138 0.017462 -0.756869
v -0.586138 0.017462 -0.768214
v -0.575348 0.017462 -0.771720
vt 0.332287 0.501935
vt 0.332155 0.501707
vt 0.332418 0.501707
vt 0.332023 0.501478
vt 0.331891 0.501707
vt 0.331759 0.501478
vt 0.330178 0.501935
vt 0.330046 0.501707
vt 0.330309 0.501707
vt 0.330705 0.501935
vt 0.330573 0.501707
vt 0.330837 0.501707
vt 0.331232 0.501935
vt 0.331100 0.501707
vt 0.331364 0.501707
vt 0.331891 0.501250
vt 0.332550 0.501478
vt 0.332287 0.501478
vt 0.332418 0.501250
vt 0.330441 0.501478
vt 0.330178 0.501478
vt 0.330309 0.501250
vt 0.330968 0.501478
vt 0.330705 0.501478
vt 0.330837 0.501250
vt 0.331496 0.501478
vt 0.331232 0.501478
vt 0.331364 0.501250
vt 0.332155 0.501250
vt 0.332682 0.501250
vt 0.330573 0.501250
vt 0.331100 0.501250
vt 0.331627 0.501250
vt 0.332287 0.501022
vt 0.332023 0.501022
vt 0.332155 0.500794
vt 0.332814 0.501022
vt 0.332550 0.501022
vt 0.332682 0.500794
vt 0.330705 0.501022
vt 0.330441 0.501022
vt 0.330573 0.500794
vt 0.331232 0.501022
vt 0.330968 0.501022
vt 0.331100 0.500794
vt 0.331759 0.501022
vt 0.331496 0.501022
vt 0.331627 0.500794
vt 0.331364 0.500794
vt 0.331496 0.500565
vt 0.330837 0.500794
vt 0.330968 0.500565
vt 0.330309 0.500794
vt 0.330441 0.500565
vt 0.330178 0.501022
vt 0.332418 0.500794
vt 0.332550 0.500565
vt 0.331891 0.500794
vt 0.332023 0.500565
vt 0.330046 0.501250
vt 0.329914 0.501478
vt 0.331627 0.501707
vt 0.331759 0.501935
vn 0.0000 -1.0000 0.0000
vn 0.4253 -0.8506 0.3090
vn -0.1625 -0.8506 0.5000
vn 0.7236 -0.4472 0.5257
vn 0.8506 -0.5257 0.0000
vn -0.5257 -0.8506 0.0000
vn -0.1625 -0.8506 -0.5000
vn 0.4253 -0.8506 -0.3090
vn 0.9510 0.0000 0.3090
vn -0.2764 -0.4472 0.8506
vn 0.2629 -0.5257 0.8090
vn 0.0000 0.0000 1.0000
vn -0.8944 -0.4472 0.0000
vn -0.6882 -0.5257 0.5000
vn -0.9510 0.0000 0.3090
vn -0.2764 -0.4472 -0.8506
vn -0.6882 -0.5257 -0.5000
vn -0.5878 0.0000 -0.8090
vn 0.7236 -0.4472 -0.5257
vn 0.2629 -0.5257 -0.8090
vn 0.5878 0.0000 -0.8090
vn 0.5878 0.0000 0.8090
vn -0.5878 0.0000 0.8090
vn -0.9510 0.0000 -0.3090
vn 0.0000 0.0000 -1.0000
vn 0.9510 0.0000 -0.3090
vn 0.2764 0.4472 0.8506
vn 0.6882 0.5257 0.5000
vn 0.1625 0.8506 0.5000
vn -0.7236 0.4472 0.5257
vn -0.2629 0.5257 0.8090
vn -0.4253 0.8506 0.3090
vn -0.7236 0.4472 -0.5257
vn -0.8506 0.5257 0.0000
vn -0.4253 0.8506 -0.3090
vn 0.2764 0.4472 -0.8506
vn -0.2629 0.5257 -0.8090
vn 0.1625 0.8506 -0.5000
vn 0.8944 0.4472 0.0000
vn 0.6882 0.5257 -0.5000
vn 0.5257 0.8506 0.0000
vn 0.0000 1.0000 0.0000
usemtl Amsterdam
s 1
f 866/895/288 879/896/289 878/897/290
f 867/898/291 879/899/289 881/900/292
f 866/901/288 878/902/290 883/903/293
f 866/904/288 883/905/293 885/906/294
f 866/907/288 885/908/294 882/909/295
f 867/898/291 881/900/292 888/910/296
f 868/911/297 880/912/298 890/913/299
f 869/914/300 884/915/301 892/916/302
f 870/917/303 886/918/304 894/919/305
f 871/920/306 887/921/307 896/922/308
f 867/898/291 888/910/296 891/923/309
f 868/911/297 890/913/299 893/924/310
f 869/914/300 892/916/302 895/925/311
f 870/917/303 894/919/305 897/926/312
f 871/920/306 896/922/308 889/927/313
f 872/928/314 898/929/315 903/930/316
f 873/931/317 899/932/318 905/933/319
f 874/934/320 900/935/321 906/936/322
f 875/937/323 901/938/324 907/939/325
f 876/940/326 902/941/327 904/942/328
f 904/942/328 907/943/325 877/944/329
f 904/942/328 902/941/327 907/943/325
f 902/941/327 875/937/323 907/943/325
f 907/939/325 906/945/322 877/946/329
f 907/939/325 901/938/324 906/945/322
f 901/938/324 874/934/320 906/945/322
f 906/936/322 905/947/319 877/948/329
f 906/936/322 900/935/321 905/947/319
f 900/935/321 873/949/317 905/947/319
f 905/933/319 903/950/316 877/951/329
f 905/933/319 899/932/318 903/950/316
f 899/932/318 872/928/314 903/950/316
f 903/930/316 904/952/328 877/953/329
f 903/930/316 898/929/315 904/952/328
f 898/929/315 876/940/326 904/952/328
f 889/927/313 902/941/327 876/940/326
f 889/927/313 896/922/308 902/941/327
f 896/922/308 875/937/323 902/941/327
f 897/926/312 901/938/324 875/937/323
f 897/926/312 894/919/305 901/938/324
f 894/919/305 874/934/320 901/938/324
f 895/925/311 900/935/321 874/934/320
f 895/925/311 892/916/302 900/935/321
f 892/916/302 873/949/317 900/935/321
f 893/924/310 899/932/318 873/931/317
f 893/924/310 890/913/299 899/932/318
f 890/913/299 872/928/314 899/932/318
f 891/923/309 898/929/315 872/928/314
f 891/923/309 888/910/296 898/929/315
f 888/910/296 876/940/326 898/929/315
f 896/922/308 897/926/312 875/937/323
f 896/922/308 887/921/307 897/926/312
f 887/921/307 870/917/303 897/926/312
f 894/919/305 895/925/311 874/934/320
f 894/919/305 886/918/304 895/925/311
f 886/918/304 869/914/300 895/925/311
f 892/916/302 893/954/310 873/949/317
f 892/916/302 884/915/301 893/954/310
f 884/915/301 868/955/297 893/954/310
f 890/913/299 891/923/309 872/928/314
f 890/913/299 880/912/298 891/923/309
f 880/912/298 867/898/291 891/923/309
f 888/910/296 889/927/313 876/940/326
f 888/910/296 881/900/292 889/927/313
f 881/900/292 871/920/306 889/927/313
f 882/909/295 887/921/307 871/920/306
f 882/909/295 885/908/294 887/921/307
f 885/908/294 870/917/303 887/921/307
f 885/906/294 886/918/304 870/917/303
f 885/906/294 883/905/293 886/918/304
f 883/905/293 869/914/300 886/918/304
f 883/903/293 884/915/301 869/914/300
f 883/903/293 878/902/290 884/915/301
f 878/902/290 868/955/297 884/915/301
f 881/900/292 882/956/295 871/920/306
f 881/900/292 879/899/289 882/956/295
f 879/899/289 866/957/288 882/956/295
f 878/897/290 880/912/298 868/911/297
f 878/897/290 879/896/289 880/912/298
f 879/896/289 867/898/291 880/912/298
